VHDL-FPGA/EJEMPLO_8_COMPONENTES/simulation/qsim/componentes.msim.vcd
$comment
	File created using the following command:
		vcd file componentes.msim.vcd -direction
$end
$date
	Mon Aug 08 20:36:30 2022
$end
$version
	ModelSim Version 2020.1
$end
$timescale
	1ps
$end

$scope module componentes_vhd_vec_tst $end
$var wire 1 ! A $end
$var wire 1 " B $end
$var wire 1 # Cin $end
$var wire 1 $ Co $end
$var wire 1 % S $end

$scope module i1 $end
$var wire 1 & gnd $end
$var wire 1 ' vcc $end
$var wire 1 ( unknown $end
$var wire 1 ) devoe $end
$var wire 1 * devclrn $end
$var wire 1 + devpor $end
$var wire 1 , ww_devoe $end
$var wire 1 - ww_devclrn $end
$var wire 1 . ww_devpor $end
$var wire 1 / ww_A $end
$var wire 1 0 ww_B $end
$var wire 1 1 ww_Cin $end
$var wire 1 2 ww_S $end
$var wire 1 3 ww_Co $end
$var wire 1 4 \S~output_o\ $end
$var wire 1 5 \Co~output_o\ $end
$var wire 1 6 \A~input_o\ $end
$var wire 1 7 \B~input_o\ $end
$var wire 1 8 \Cin~input_o\ $end
$var wire 1 9 \unidad_2|out1_medio1~0_combout\ $end
$var wire 1 : \unidad_3|out1_or1~0_combout\ $end
$upscope $end
$upscope $end
$enddefinitions $end
#0
$dumpvars
0!
0"
0#
0$
0%
0&
1'
x(
1)
1*
1+
1,
1-
1.
0/
00
01
02
03
04
05
06
07
08
09
0:
$end
#100000
1"
10
17
19
14
12
1%
#200000
0"
1!
00
1/
16
07
#300000
1"
10
17
09
1:
15
04
13
02
1$
0%
#400000
0"
0!
00
0/
06
07
0:
05
03
0$
#500000
1"
10
17
19
14
12
1%
#600000
0"
1!
00
1/
16
07
#700000
1"
10
17
09
1:
15
04
13
02
1$
0%
#800000
0"
0!
00
0/
06
07
0:
05
03
0$
#900000
1"
10
17
19
14
12
1%
