clase 2/decoder_1_3to8/simulation/qsim/decoder_fpga.msim.vcd
$comment
	File created using the following command:
		vcd file decoder_fpga.msim.vcd -direction
$end
$date
	Thu Jan 06 13:54:26 2022
$end
$version
	ModelSim Version 2020.1
$end
$timescale
	1ps
$end

$scope module decoder_fpga_vhd_vec_tst $end
$var wire 1 ! A1 $end
$var wire 1 " A2 $end
$var wire 1 # A3 $end
$var wire 1 $ S1 $end
$var wire 1 % S2 $end
$var wire 1 & S3 $end
$var wire 1 ' S4 $end
$var wire 1 ( S5 $end
$var wire 1 ) S6 $end
$var wire 1 * S7 $end
$var wire 1 + S8 $end

$scope module i1 $end
$var wire 1 , gnd $end
$var wire 1 - vcc $end
$var wire 1 . unknown $end
$var wire 1 / devoe $end
$var wire 1 0 devclrn $end
$var wire 1 1 devpor $end
$var wire 1 2 ww_devoe $end
$var wire 1 3 ww_devclrn $end
$var wire 1 4 ww_devpor $end
$var wire 1 5 ww_A1 $end
$var wire 1 6 ww_A2 $end
$var wire 1 7 ww_A3 $end
$var wire 1 8 ww_S1 $end
$var wire 1 9 ww_S2 $end
$var wire 1 : ww_S3 $end
$var wire 1 ; ww_S4 $end
$var wire 1 < ww_S5 $end
$var wire 1 = ww_S6 $end
$var wire 1 > ww_S7 $end
$var wire 1 ? ww_S8 $end
$var wire 1 @ \S1~output_o\ $end
$var wire 1 A \S2~output_o\ $end
$var wire 1 B \S3~output_o\ $end
$var wire 1 C \S4~output_o\ $end
$var wire 1 D \S5~output_o\ $end
$var wire 1 E \S6~output_o\ $end
$var wire 1 F \S7~output_o\ $end
$var wire 1 G \S8~output_o\ $end
$var wire 1 H \A3~input_o\ $end
$var wire 1 I \A2~input_o\ $end
$var wire 1 J \A1~input_o\ $end
$var wire 1 K \S1~0_combout\ $end
$var wire 1 L \S2~0_combout\ $end
$var wire 1 M \S3~0_combout\ $end
$var wire 1 N \S4~0_combout\ $end
$var wire 1 O \S5~0_combout\ $end
$var wire 1 P \S6~0_combout\ $end
$var wire 1 Q \S7~0_combout\ $end
$var wire 1 R \S8~0_combout\ $end
$var wire 1 S \ALT_INV_S1~0_combout\ $end
$upscope $end
$upscope $end
$enddefinitions $end
#0
$dumpvars
0!
0"
0#
1$
0%
0&
0'
0(
0)
0*
0+
0,
1-
x.
1/
10
11
12
13
14
05
06
07
18
09
0:
0;
0<
0=
0>
0?
1@
0A
0B
0C
0D
0E
0F
0G
0H
0I
0J
0K
0L
0M
0N
0O
0P
0Q
0R
1S
$end
#12500
1!
15
1J
1K
1O
0S
1D
0@
1<
08
1(
0$
#25000
0!
1"
05
16
1I
0J
1M
0O
0D
1B
0<
1:
0(
1&
#37500
1!
15
1J
0M
1Q
1F
0B
1>
0:
1*
0&
#50000
0!
0"
1#
05
06
17
1H
0I
0J
1L
0Q
0F
1A
0>
19
0*
1%
#62500
1!
15
1J
0L
1P
1E
0A
1=
09
1)
0%
#75000
0!
1"
05
16
1I
0J
1N
0P
0E
1C
0=
1;
0)
1'
#87500
1!
15
1J
0N
1R
1G
0C
1?
0;
1+
0'
#100000
0!
0"
0#
05
06
07
0H
0I
0J
0K
0R
1S
0G
1@
0?
18
0+
1$
#112500
1!
15
1J
1K
1O
0S
1D
0@
1<
08
1(
0$
#125000
0!
1"
05
16
1I
0J
1M
0O
0D
1B
0<
1:
0(
1&
#137500
1!
15
1J
0M
1Q
1F
0B
1>
0:
1*
0&
#150000
0!
0"
1#
05
06
17
1H
0I
0J
1L
0Q
0F
1A
0>
19
0*
1%
#162500
1!
15
1J
0L
1P
1E
0A
1=
09
1)
0%
#175000
0!
1"
05
16
1I
0J
1N
0P
0E
1C
0=
1;
0)
1'
#187500
1!
15
1J
0N
1R
1G
0C
1?
0;
1+
0'
#200000
0!
0"
0#
05
06
07
0H
0I
0J
0K
0R
1S
0G
1@
0?
18
0+
1$
#212500
1!
15
1J
1K
1O
0S
1D
0@
1<
08
1(
0$
#225000
0!
1"
05
16
1I
0J
1M
0O
0D
1B
0<
1:
0(
1&
#237500
1!
15
1J
0M
1Q
1F
0B
1>
0:
1*
0&
#250000
0!
0"
1#
05
06
17
1H
0I
0J
1L
0Q
0F
1A
0>
19
0*
1%
#262500
1!
15
1J
0L
1P
1E
0A
1=
09
1)
0%
#275000
0!
1"
05
16
1I
0J
1N
0P
0E
1C
0=
1;
0)
1'
#287500
1!
15
1J
0N
1R
1G
0C
1?
0;
1+
0'
#300000
0!
0"
0#
05
06
07
0H
0I
0J
0K
0R
1S
0G
1@
0?
18
0+
1$
#312500
1!
15
1J
1K
1O
0S
1D
0@
1<
08
1(
0$
#325000
0!
1"
05
16
1I
0J
1M
0O
0D
1B
0<
1:
0(
1&
#337500
1!
15
1J
0M
1Q
1F
0B
1>
0:
1*
0&
#350000
0!
0"
1#
05
06
17
1H
0I
0J
1L
0Q
0F
1A
0>
19
0*
1%
#362500
1!
15
1J
0L
1P
1E
0A
1=
09
1)
0%
#375000
0!
1"
05
16
1I
0J
1N
0P
0E
1C
0=
1;
0)
1'
#387500
1!
15
1J
0N
1R
1G
0C
1?
0;
1+
0'
#400000
0!
0"
0#
05
06
07
0H
0I
0J
0K
0R
1S
0G
1@
0?
18
0+
1$
#412500
1!
15
1J
1K
1O
0S
1D
0@
1<
08
1(
0$
#425000
0!
1"
05
16
1I
0J
1M
0O
0D
1B
0<
1:
0(
1&
#437500
1!
15
1J
0M
1Q
1F
0B
1>
0:
1*
0&
#450000
0!
0"
1#
05
06
17
1H
0I
0J
1L
0Q
0F
1A
0>
19
0*
1%
#462500
1!
15
1J
0L
1P
1E
0A
1=
09
1)
0%
#475000
0!
1"
05
16
1I
0J
1N
0P
0E
1C
0=
1;
0)
1'
#487500
1!
15
1J
0N
1R
1G
0C
1?
0;
1+
0'
#500000
0!
0"
0#
05
06
07
0H
0I
0J
0K
0R
1S
0G
1@
0?
18
0+
1$
#512500
1!
15
1J
1K
1O
0S
1D
0@
1<
08
1(
0$
#525000
0!
1"
05
16
1I
0J
1M
0O
0D
1B
0<
1:
0(
1&
#537500
1!
15
1J
0M
1Q
1F
0B
1>
0:
1*
0&
#550000
0!
0"
1#
05
06
17
1H
0I
0J
1L
0Q
0F
1A
0>
19
0*
1%
#562500
1!
15
1J
0L
1P
1E
0A
1=
09
1)
0%
#575000
0!
1"
05
16
1I
0J
1N
0P
0E
1C
0=
1;
0)
1'
#587500
1!
15
1J
0N
1R
1G
0C
1?
0;
1+
0'
#600000
0!
0"
0#
05
06
07
0H
0I
0J
0K
0R
1S
0G
1@
0?
18
0+
1$
#612500
1!
15
1J
1K
1O
0S
1D
0@
1<
08
1(
0$
#625000
0!
1"
05
16
1I
0J
1M
0O
0D
1B
0<
1:
0(
1&
#637500
1!
15
1J
0M
1Q
1F
0B
1>
0:
1*
0&
#650000
0!
0"
1#
05
06
17
1H
0I
0J
1L
0Q
0F
1A
0>
19
0*
1%
#662500
1!
15
1J
0L
1P
1E
0A
1=
09
1)
0%
#675000
0!
1"
05
16
1I
0J
1N
0P
0E
1C
0=
1;
0)
1'
#687500
1!
15
1J
0N
1R
1G
0C
1?
0;
1+
0'
#700000
0!
0"
0#
05
06
07
0H
0I
0J
0K
0R
1S
0G
1@
0?
18
0+
1$
#712500
1!
15
1J
1K
1O
0S
1D
0@
1<
08
1(
0$
#725000
0!
1"
05
16
1I
0J
1M
0O
0D
1B
0<
1:
0(
1&
#737500
1!
15
1J
0M
1Q
1F
0B
1>
0:
1*
0&
#750000
0!
0"
1#
05
06
17
1H
0I
0J
1L
0Q
0F
1A
0>
19
0*
1%
#762500
1!
15
1J
0L
1P
1E
0A
1=
09
1)
0%
#775000
0!
1"
05
16
1I
0J
1N
0P
0E
1C
0=
1;
0)
1'
#787500
1!
15
1J
0N
1R
1G
0C
1?
0;
1+
0'
#800000
0!
0"
0#
05
06
07
0H
0I
0J
0K
0R
1S
0G
1@
0?
18
0+
1$
#812500
1!
15
1J
1K
1O
0S
1D
0@
1<
08
1(
0$
#825000
0!
1"
05
16
1I
0J
1M
0O
0D
1B
0<
1:
0(
1&
#837500
1!
15
1J
0M
1Q
1F
0B
1>
0:
1*
0&
#850000
0!
0"
1#
05
06
17
1H
0I
0J
1L
0Q
0F
1A
0>
19
0*
1%
#862500
1!
15
1J
0L
1P
1E
0A
1=
09
1)
0%
#875000
0!
1"
05
16
1I
0J
1N
0P
0E
1C
0=
1;
0)
1'
#887500
1!
15
1J
0N
1R
1G
0C
1?
0;
1+
0'
#900000
0!
0"
0#
05
06
07
0H
0I
0J
0K
0R
1S
0G
1@
0?
18
0+
1$
#912500
1!
15
1J
1K
1O
0S
1D
0@
1<
08
1(
0$
#925000
0!
1"
05
16
1I
0J
1M
0O
0D
1B
0<
1:
0(
1&
#937500
1!
15
1J
0M
1Q
1F
0B
1>
0:
1*
0&
#950000
0!
0"
1#
05
06
17
1H
0I
0J
1L
0Q
0F
1A
0>
19
0*
1%
#962500
1!
15
1J
0L
1P
1E
0A
1=
09
1)
0%
#975000
0!
1"
05
16
1I
0J
1N
0P
0E
1C
0=
1;
0)
1'
#987500
1!
15
1J
0N
1R
1G
0C
1?
0;
1+
0'
