VHDL-FPGA/EJEMPLO_4_CONTADOR_4_BITS/simulation/qsim/counter_4_bits.msim.vcd
$comment
	File created using the following command:
		vcd file counter_4_bits.msim.vcd -direction
$end
$date
	Sat Aug 06 11:14:52 2022
$end
$version
	ModelSim Version 2020.1
$end
$timescale
	1ps
$end

$scope module counter_4_bits_vhd_vec_tst $end
$var wire 1 ! int_clock_counter $end
$var wire 1 " out_counter [3] $end
$var wire 1 # out_counter [2] $end
$var wire 1 $ out_counter [1] $end
$var wire 1 % out_counter [0] $end

$scope module i1 $end
$var wire 1 & gnd $end
$var wire 1 ' vcc $end
$var wire 1 ( unknown $end
$var wire 1 ) devoe $end
$var wire 1 * devclrn $end
$var wire 1 + devpor $end
$var wire 1 , ww_devoe $end
$var wire 1 - ww_devclrn $end
$var wire 1 . ww_devpor $end
$var wire 1 / ww_int_clock_counter $end
$var wire 1 0 ww_out_counter [3] $end
$var wire 1 1 ww_out_counter [2] $end
$var wire 1 2 ww_out_counter [1] $end
$var wire 1 3 ww_out_counter [0] $end
$var wire 1 4 \out_counter[0]~output_o\ $end
$var wire 1 5 \out_counter[1]~output_o\ $end
$var wire 1 6 \out_counter[2]~output_o\ $end
$var wire 1 7 \out_counter[3]~output_o\ $end
$var wire 1 8 \int_clock_counter~input_o\ $end
$var wire 1 9 \counter_signal[0]~3_combout\ $end
$var wire 1 : \counter_signal[1]~0_combout\ $end
$var wire 1 ; \counter_signal[2]~1_combout\ $end
$var wire 1 < \counter_signal[3]~2_combout\ $end
$var wire 1 = counter_signal [3] $end
$var wire 1 > counter_signal [2] $end
$var wire 1 ? counter_signal [1] $end
$var wire 1 @ counter_signal [0] $end
$upscope $end
$upscope $end
$enddefinitions $end
#0
$dumpvars
0!
0&
1'
x(
1)
1*
1+
1,
1-
1.
0/
04
05
06
07
08
19
0:
0;
0<
00
01
02
03
0=
0>
0?
0@
0"
0#
0$
0%
$end
#10000
1!
1/
18
1@
09
1:
14
13
1%
#20000
0!
0/
08
#30000
1!
1/
18
0@
1?
19
15
04
12
03
0%
1$
#40000
0!
0/
08
#50000
1!
1/
18
1@
09
0:
1;
14
13
1%
#60000
0!
0/
08
#70000
1!
1/
18
0@
0?
1>
19
16
05
04
11
02
03
0%
0$
1#
#80000
0!
0/
08
#90000
1!
1/
18
1@
09
1:
14
13
1%
#100000
0!
0/
08
#110000
1!
1/
18
0@
1?
19
15
04
12
03
0%
1$
#120000
0!
0/
08
#130000
1!
1/
18
1@
09
0:
0;
1<
14
13
1%
#140000
0!
0/
08
#150000
1!
1/
18
0@
0?
0>
1=
19
17
06
05
04
10
01
02
03
0%
0$
0#
1"
#160000
0!
0/
08
#170000
1!
1/
18
1@
09
1:
14
13
1%
#180000
0!
0/
08
#190000
1!
1/
18
0@
1?
19
15
04
12
03
0%
1$
#200000
0!
0/
08
#210000
1!
1/
18
1@
09
0:
1;
14
13
1%
#220000
0!
0/
08
#230000
1!
1/
18
0@
0?
1>
19
16
05
04
11
02
03
0%
0$
1#
#240000
0!
0/
08
#250000
1!
1/
18
1@
09
1:
14
13
1%
#260000
0!
0/
08
#270000
1!
1/
18
0@
1?
19
15
04
12
03
0%
1$
#280000
0!
0/
08
#290000
1!
1/
18
1@
09
0:
0;
0<
14
13
1%
#300000
0!
0/
08
#310000
1!
1/
18
0@
0?
0>
0=
19
07
06
05
04
00
01
02
03
0%
0$
0#
0"
#320000
0!
0/
08
#330000
1!
1/
18
1@
09
1:
14
13
1%
#340000
0!
0/
08
#350000
1!
1/
18
0@
1?
19
15
04
12
03
0%
1$
#360000
0!
0/
08
#370000
1!
1/
18
1@
09
0:
1;
14
13
1%
#380000
0!
0/
08
#390000
1!
1/
18
0@
0?
1>
19
16
05
04
11
02
03
0%
0$
1#
#400000
0!
0/
08
#410000
1!
1/
18
1@
09
1:
14
13
1%
#420000
0!
0/
08
#430000
1!
1/
18
0@
1?
19
15
04
12
03
0%
1$
#440000
0!
0/
08
#450000
1!
1/
18
1@
09
0:
0;
1<
14
13
1%
#460000
0!
0/
08
#470000
1!
1/
18
0@
0?
0>
1=
19
17
06
05
04
10
01
02
03
0%
0$
0#
1"
#480000
0!
0/
08
#490000
1!
1/
18
1@
09
1:
14
13
1%
#500000
0!
0/
08
#510000
1!
1/
18
0@
1?
19
15
04
12
03
0%
1$
#520000
0!
0/
08
#530000
1!
1/
18
1@
09
0:
1;
14
13
1%
#540000
0!
0/
08
#550000
1!
1/
18
0@
0?
1>
19
16
05
04
11
02
03
0%
0$
1#
#560000
0!
0/
08
#570000
1!
1/
18
1@
09
1:
14
13
1%
#580000
0!
0/
08
#590000
1!
1/
18
0@
1?
19
15
04
12
03
0%
1$
#600000
0!
0/
08
#610000
1!
1/
18
1@
09
0:
0;
0<
14
13
1%
#620000
0!
0/
08
#630000
1!
1/
18
0@
0?
0>
0=
19
07
06
05
04
00
01
02
03
0%
0$
0#
0"
#640000
0!
0/
08
#650000
1!
1/
18
1@
09
1:
14
13
1%
#660000
0!
0/
08
#670000
1!
1/
18
0@
1?
19
15
04
12
03
0%
1$
#680000
0!
0/
08
#690000
1!
1/
18
1@
09
0:
1;
14
13
1%
#700000
0!
0/
08
#710000
1!
1/
18
0@
0?
1>
19
16
05
04
11
02
03
0%
0$
1#
#720000
0!
0/
08
#730000
1!
1/
18
1@
09
1:
14
13
1%
#740000
0!
0/
08
#750000
1!
1/
18
0@
1?
19
15
04
12
03
0%
1$
#760000
0!
0/
08
#770000
1!
1/
18
1@
09
0:
0;
1<
14
13
1%
#780000
0!
0/
08
#790000
1!
1/
18
0@
0?
0>
1=
19
17
06
05
04
10
01
02
03
0%
0$
0#
1"
#800000
0!
0/
08
#810000
1!
1/
18
1@
09
1:
14
13
1%
#820000
0!
0/
08
#830000
1!
1/
18
0@
1?
19
15
04
12
03
0%
1$
#840000
0!
0/
08
#850000
1!
1/
18
1@
09
0:
1;
14
13
1%
#860000
0!
0/
08
#870000
1!
1/
18
0@
0?
1>
19
16
05
04
11
02
03
0%
0$
1#
#880000
0!
0/
08
#890000
1!
1/
18
1@
09
1:
14
13
1%
#900000
0!
0/
08
#910000
1!
1/
18
0@
1?
19
15
04
12
03
0%
1$
#920000
0!
0/
08
#930000
1!
1/
18
1@
09
0:
0;
0<
14
13
1%
#940000
0!
0/
08
#950000
1!
1/
18
0@
0?
0>
0=
19
07
06
05
04
00
01
02
03
0%
0$
0#
0"
#960000
0!
0/
08
#970000
1!
1/
18
1@
09
1:
14
13
1%
#980000
0!
0/
08
#990000
1!
1/
18
0@
1?
19
15
04
12
03
0%
1$
