clase 2/simulation/qsim/adder_bin.msim.vcd
$comment
	File created using the following command:
		vcd file adder_bin.msim.vcd -direction
$end
$date
	Sat Jan 08 08:52:50 2022
$end
$version
	ModelSim Version 2020.1
$end
$timescale
	1ps
$end

$scope module adder_bin_vhd_vec_tst $end
$var wire 1 ! A $end
$var wire 1 " B $end
$var wire 1 # C $end
$var wire 1 $ S $end

$scope module i1 $end
$var wire 1 % gnd $end
$var wire 1 & vcc $end
$var wire 1 ' unknown $end
$var wire 1 ( devoe $end
$var wire 1 ) devclrn $end
$var wire 1 * devpor $end
$var wire 1 + ww_devoe $end
$var wire 1 , ww_devclrn $end
$var wire 1 - ww_devpor $end
$var wire 1 . ww_A $end
$var wire 1 / ww_B $end
$var wire 1 0 ww_S $end
$var wire 1 1 ww_C $end
$var wire 1 2 \S~output_o\ $end
$var wire 1 3 \C~output_o\ $end
$var wire 1 4 \A~input_o\ $end
$var wire 1 5 \B~input_o\ $end
$var wire 1 6 \S~0_combout\ $end
$var wire 1 7 \C~0_combout\ $end
$upscope $end
$upscope $end
$enddefinitions $end
#0
$dumpvars
0!
0"
0#
0$
0%
1&
x'
1(
1)
1*
1+
1,
1-
0.
0/
00
01
02
03
04
05
06
07
$end
#10000
1"
1/
15
16
12
10
1$
#20000
0"
1!
0/
1.
14
05
#30000
1"
1/
15
06
17
13
02
11
00
1#
0$
#40000
0"
0!
0/
0.
04
05
07
03
01
0#
#50000
1"
1/
15
16
12
10
1$
#60000
0"
1!
0/
1.
14
05
#70000
1"
1/
15
06
17
13
02
11
00
1#
0$
#80000
0"
0!
0/
0.
04
05
07
03
01
0#
#90000
1"
1/
15
16
12
10
1$
#100000
0"
1!
0/
1.
14
05
#110000
1"
1/
15
06
17
13
02
11
00
1#
0$
#120000
0"
0!
0/
0.
04
05
07
03
01
0#
#130000
1"
1/
15
16
12
10
1$
#140000
0"
1!
0/
1.
14
05
#150000
1"
1/
15
06
17
13
02
11
00
1#
0$
#160000
0"
0!
0/
0.
04
05
07
03
01
0#
#170000
1"
1/
15
16
12
10
1$
#180000
0"
1!
0/
1.
14
05
#190000
1"
1/
15
06
17
13
02
11
00
1#
0$
#200000
0"
0!
0/
0.
04
05
07
03
01
0#
#210000
1"
1/
15
16
12
10
1$
#220000
0"
1!
0/
1.
14
05
#230000
1"
1/
15
06
17
13
02
11
00
1#
0$
#240000
0"
0!
0/
0.
04
05
07
03
01
0#
#250000
1"
1/
15
16
12
10
1$
#260000
0"
1!
0/
1.
14
05
#270000
1"
1/
15
06
17
13
02
11
00
1#
0$
#280000
0"
0!
0/
0.
04
05
07
03
01
0#
#290000
1"
1/
15
16
12
10
1$
#300000
0"
1!
0/
1.
14
05
#310000
1"
1/
15
06
17
13
02
11
00
1#
0$
#320000
0"
0!
0/
0.
04
05
07
03
01
0#
#330000
1"
1/
15
16
12
10
1$
#340000
0"
1!
0/
1.
14
05
#350000
1"
1/
15
06
17
13
02
11
00
1#
0$
#360000
0"
0!
0/
0.
04
05
07
03
01
0#
#370000
1"
1/
15
16
12
10
1$
#380000
0"
1!
0/
1.
14
05
#390000
1"
1/
15
06
17
13
02
11
00
1#
0$
#400000
0"
0!
0/
0.
04
05
07
03
01
0#
#410000
1"
1/
15
16
12
10
1$
#420000
0"
1!
0/
1.
14
05
#430000
1"
1/
15
06
17
13
02
11
00
1#
0$
#440000
0"
0!
0/
0.
04
05
07
03
01
0#
#450000
1"
1/
15
16
12
10
1$
#460000
0"
1!
0/
1.
14
05
#470000
1"
1/
15
06
17
13
02
11
00
1#
0$
#480000
0"
0!
0/
0.
04
05
07
03
01
0#
#490000
1"
1/
15
16
12
10
1$
#500000
0"
1!
0/
1.
14
05
#510000
1"
1/
15
06
17
13
02
11
00
1#
0$
#520000
0"
0!
0/
0.
04
05
07
03
01
0#
#530000
1"
1/
15
16
12
10
1$
#540000
0"
1!
0/
1.
14
05
#550000
1"
1/
15
06
17
13
02
11
00
1#
0$
#560000
0"
0!
0/
0.
04
05
07
03
01
0#
#570000
1"
1/
15
16
12
10
1$
#580000
0"
1!
0/
1.
14
05
#590000
1"
1/
15
06
17
13
02
11
00
1#
0$
#600000
0"
0!
0/
0.
04
05
07
03
01
0#
#610000
1"
1/
15
16
12
10
1$
#620000
0"
1!
0/
1.
14
05
#630000
1"
1/
15
06
17
13
02
11
00
1#
0$
#640000
0"
0!
0/
0.
04
05
07
03
01
0#
#650000
1"
1/
15
16
12
10
1$
#660000
0"
1!
0/
1.
14
05
#670000
1"
1/
15
06
17
13
02
11
00
1#
0$
#680000
0"
0!
0/
0.
04
05
07
03
01
0#
#690000
1"
1/
15
16
12
10
1$
#700000
0"
1!
0/
1.
14
05
#710000
1"
1/
15
06
17
13
02
11
00
1#
0$
#720000
0"
0!
0/
0.
04
05
07
03
01
0#
#730000
1"
1/
15
16
12
10
1$
#740000
0"
1!
0/
1.
14
05
#750000
1"
1/
15
06
17
13
02
11
00
1#
0$
#760000
0"
0!
0/
0.
04
05
07
03
01
0#
#770000
1"
1/
15
16
12
10
1$
#780000
0"
1!
0/
1.
14
05
#790000
1"
1/
15
06
17
13
02
11
00
1#
0$
#800000
0"
0!
0/
0.
04
05
07
03
01
0#
#810000
1"
1/
15
16
12
10
1$
#820000
0"
1!
0/
1.
14
05
#830000
1"
1/
15
06
17
13
02
11
00
1#
0$
#840000
0"
0!
0/
0.
04
05
07
03
01
0#
#850000
1"
1/
15
16
12
10
1$
#860000
0"
1!
0/
1.
14
05
#870000
1"
1/
15
06
17
13
02
11
00
1#
0$
#880000
0"
0!
0/
0.
04
05
07
03
01
0#
#890000
1"
1/
15
16
12
10
1$
#900000
0"
1!
0/
1.
14
05
#910000
1"
1/
15
06
17
13
02
11
00
1#
0$
#920000
0"
0!
0/
0.
04
05
07
03
01
0#
#930000
1"
1/
15
16
12
10
1$
#940000
0"
1!
0/
1.
14
05
#950000
1"
1/
15
06
17
13
02
11
00
1#
0$
#960000
0"
0!
0/
0.
04
05
07
03
01
0#
#970000
1"
1/
15
16
12
10
1$
#980000
0"
1!
0/
1.
14
05
#990000
1"
1/
15
06
17
13
02
11
00
1#
0$
