clase 3/inicializer/simulation/qsim/starter_circuit.msim.vcd
$comment
	File created using the following command:
		vcd file starter_circuit.msim.vcd -direction
$end
$date
	Tue Jan 11 12:03:19 2022
$end
$version
	ModelSim Version 2020.1
$end
$timescale
	1ps
$end

$scope module starter_circuit_vhd_vec_tst $end
$var wire 1 ! entrada_reloj $end
$var wire 1 " starter_bit $end

$scope module i1 $end
$var wire 1 # gnd $end
$var wire 1 $ vcc $end
$var wire 1 % unknown $end
$var wire 1 & devoe $end
$var wire 1 ' devclrn $end
$var wire 1 ( devpor $end
$var wire 1 ) ww_devoe $end
$var wire 1 * ww_devclrn $end
$var wire 1 + ww_devpor $end
$var wire 1 , ww_entrada_reloj $end
$var wire 1 - ww_starter_bit $end
$var wire 1 . \starter_bit~output_o\ $end
$var wire 1 / \entrada_reloj~input_o\ $end
$var wire 1 0 \register_out~q\ $end
$upscope $end
$upscope $end
$enddefinitions $end
#0
$dumpvars
0!
0"
0#
1$
x%
1&
1'
1(
1)
1*
1+
0,
0-
0.
0/
00
$end
#10000
1!
1,
1/
10
1.
1-
1"
#20000
0!
0,
0/
#30000
1!
1,
1/
#40000
0!
0,
0/
#50000
1!
1,
1/
#60000
0!
0,
0/
#70000
1!
1,
1/
#80000
0!
0,
0/
#90000
1!
1,
1/
#100000
0!
0,
0/
#110000
1!
1,
1/
#120000
0!
0,
0/
#130000
1!
1,
1/
#140000
0!
0,
0/
#150000
1!
1,
1/
#160000
0!
0,
0/
#170000
1!
1,
1/
#180000
0!
0,
0/
#190000
1!
1,
1/
#200000
0!
0,
0/
#210000
1!
1,
1/
#220000
0!
0,
0/
#230000
1!
1,
1/
#240000
0!
0,
0/
#250000
1!
1,
1/
#260000
0!
0,
0/
#270000
1!
1,
1/
#280000
0!
0,
0/
#290000
1!
1,
1/
#300000
0!
0,
0/
#310000
1!
1,
1/
#320000
0!
0,
0/
#330000
1!
1,
1/
#340000
0!
0,
0/
#350000
1!
1,
1/
#360000
0!
0,
0/
#370000
1!
1,
1/
#380000
0!
0,
0/
#390000
1!
1,
1/
#400000
0!
0,
0/
#410000
1!
1,
1/
#420000
0!
0,
0/
#430000
1!
1,
1/
#440000
0!
0,
0/
#450000
1!
1,
1/
#460000
0!
0,
0/
#470000
1!
1,
1/
#480000
0!
0,
0/
#490000
1!
1,
1/
#500000
0!
0,
0/
#510000
1!
1,
1/
#520000
0!
0,
0/
#530000
1!
1,
1/
#540000
0!
0,
0/
#550000
1!
1,
1/
#560000
0!
0,
0/
#570000
1!
1,
1/
#580000
0!
0,
0/
#590000
1!
1,
1/
#600000
0!
0,
0/
#610000
1!
1,
1/
#620000
0!
0,
0/
#630000
1!
1,
1/
#640000
0!
0,
0/
#650000
1!
1,
1/
#660000
0!
0,
0/
#670000
1!
1,
1/
#680000
0!
0,
0/
#690000
1!
1,
1/
#700000
0!
0,
0/
#710000
1!
1,
1/
#720000
0!
0,
0/
#730000
1!
1,
1/
#740000
0!
0,
0/
#750000
1!
1,
1/
#760000
0!
0,
0/
#770000
1!
1,
1/
#780000
0!
0,
0/
#790000
1!
1,
1/
#800000
0!
0,
0/
#810000
1!
1,
1/
#820000
0!
0,
0/
#830000
1!
1,
1/
#840000
0!
0,
0/
#850000
1!
1,
1/
#860000
0!
0,
0/
#870000
1!
1,
1/
#880000
0!
0,
0/
#890000
1!
1,
1/
#900000
0!
0,
0/
#910000
1!
1,
1/
#920000
0!
0,
0/
#930000
1!
1,
1/
#940000
0!
0,
0/
#950000
1!
1,
1/
#960000
0!
0,
0/
#970000
1!
1,
1/
#980000
0!
0,
0/
#990000
1!
1,
1/
