clase 1/segundo_ejemplo/simulation/qsim/and_gate.msim.vcd
$comment
	File created using the following command:
		vcd file and_gate.msim.vcd -direction
$end
$date
	Wed Jan 05 17:52:37 2022
$end
$version
	ModelSim Version 2020.1
$end
$timescale
	1ps
$end

$scope module and_gate_vhd_vec_tst $end
$var wire 1 ! A1 $end
$var wire 1 " A2 $end
$var wire 1 # C $end

$scope module i1 $end
$var wire 1 $ gnd $end
$var wire 1 % vcc $end
$var wire 1 & unknown $end
$var wire 1 ' devoe $end
$var wire 1 ( devclrn $end
$var wire 1 ) devpor $end
$var wire 1 * ww_devoe $end
$var wire 1 + ww_devclrn $end
$var wire 1 , ww_devpor $end
$var wire 1 - ww_A1 $end
$var wire 1 . ww_A2 $end
$var wire 1 / ww_C $end
$var wire 1 0 \C~output_o\ $end
$var wire 1 1 \A1~input_o\ $end
$var wire 1 2 \A2~input_o\ $end
$var wire 1 3 \C~0_combout\ $end
$var wire 1 4 \ALT_INV_C~0_combout\ $end
$upscope $end
$upscope $end
$enddefinitions $end
#0
$dumpvars
0!
0"
1#
0$
1%
x&
1'
1(
1)
1*
1+
1,
0-
0.
1/
10
01
02
03
14
$end
#25000
1"
1.
12
#50000
0"
1!
0.
1-
11
02
#75000
1"
1.
12
13
04
00
0/
0#
#100000
0"
0!
0.
0-
01
02
03
14
10
1/
1#
#125000
1"
1.
12
#150000
0"
1!
0.
1-
11
02
#175000
1"
1.
12
13
04
00
0/
0#
#200000
0"
0!
0.
0-
01
02
03
14
10
1/
1#
#225000
1"
1.
12
#250000
0"
1!
0.
1-
11
02
#275000
1"
1.
12
13
04
00
0/
0#
#300000
0"
0!
0.
0-
01
02
03
14
10
1/
1#
#325000
1"
1.
12
#350000
0"
1!
0.
1-
11
02
#375000
1"
1.
12
13
04
00
0/
0#
#400000
0"
0!
0.
0-
01
02
03
14
10
1/
1#
#425000
1"
1.
12
#450000
0"
1!
0.
1-
11
02
#475000
1"
1.
12
13
04
00
0/
0#
#500000
0"
0!
0.
0-
01
02
03
14
10
1/
1#
#525000
1"
1.
12
#550000
0"
1!
0.
1-
11
02
#575000
1"
1.
12
13
04
00
0/
0#
#600000
0"
0!
0.
0-
01
02
03
14
10
1/
1#
#625000
1"
1.
12
#650000
0"
1!
0.
1-
11
02
#675000
1"
1.
12
13
04
00
0/
0#
#700000
0"
0!
0.
0-
01
02
03
14
10
1/
1#
#725000
1"
1.
12
#750000
0"
1!
0.
1-
11
02
#775000
1"
1.
12
13
04
00
0/
0#
#800000
0"
0!
0.
0-
01
02
03
14
10
1/
1#
#825000
1"
1.
12
#850000
0"
1!
0.
1-
11
02
#875000
1"
1.
12
13
04
00
0/
0#
#900000
0"
0!
0.
0-
01
02
03
14
10
1/
1#
#925000
1"
1.
12
#950000
0"
1!
0.
1-
11
02
#975000
1"
1.
12
13
04
00
0/
0#
