clase 2/mag_comparator/simulation/qsim/comparator_mag.msim.vcd
$comment
	File created using the following command:
		vcd file comparator_mag.msim.vcd -direction
$end
$date
	Fri Jan 07 14:47:08 2022
$end
$version
	ModelSim Version 2020.1
$end
$timescale
	1ps
$end

$scope module comparator_mag_vhd_vec_tst $end
$var wire 1 ! inputs1 [3] $end
$var wire 1 " inputs1 [2] $end
$var wire 1 # inputs1 [1] $end
$var wire 1 $ inputs1 [0] $end
$var wire 1 % inputs2 [3] $end
$var wire 1 & inputs2 [2] $end
$var wire 1 ' inputs2 [1] $end
$var wire 1 ( inputs2 [0] $end
$var wire 1 ) mayor_igual_menor [2] $end
$var wire 1 * mayor_igual_menor [1] $end
$var wire 1 + mayor_igual_menor [0] $end

$scope module i1 $end
$var wire 1 , gnd $end
$var wire 1 - vcc $end
$var wire 1 . unknown $end
$var wire 1 / devoe $end
$var wire 1 0 devclrn $end
$var wire 1 1 devpor $end
$var wire 1 2 ww_devoe $end
$var wire 1 3 ww_devclrn $end
$var wire 1 4 ww_devpor $end
$var wire 1 5 ww_inputs1 [3] $end
$var wire 1 6 ww_inputs1 [2] $end
$var wire 1 7 ww_inputs1 [1] $end
$var wire 1 8 ww_inputs1 [0] $end
$var wire 1 9 ww_inputs2 [3] $end
$var wire 1 : ww_inputs2 [2] $end
$var wire 1 ; ww_inputs2 [1] $end
$var wire 1 < ww_inputs2 [0] $end
$var wire 1 = ww_mayor_igual_menor [2] $end
$var wire 1 > ww_mayor_igual_menor [1] $end
$var wire 1 ? ww_mayor_igual_menor [0] $end
$var wire 1 @ \mayor_igual_menor[0]~output_o\ $end
$var wire 1 A \mayor_igual_menor[1]~output_o\ $end
$var wire 1 B \mayor_igual_menor[2]~output_o\ $end
$var wire 1 C \inputs1[3]~input_o\ $end
$var wire 1 D \inputs1[2]~input_o\ $end
$var wire 1 E \inputs2[2]~input_o\ $end
$var wire 1 F \inputs2[3]~input_o\ $end
$var wire 1 G \LessThan0~0_combout\ $end
$var wire 1 H \inputs1[1]~input_o\ $end
$var wire 1 I \inputs1[0]~input_o\ $end
$var wire 1 J \inputs2[0]~input_o\ $end
$var wire 1 K \inputs2[1]~input_o\ $end
$var wire 1 L \LessThan0~1_combout\ $end
$var wire 1 M \Equal0~0_combout\ $end
$var wire 1 N \LessThan0~2_combout\ $end
$var wire 1 O \Equal0~1_combout\ $end
$var wire 1 P \Equal0~2_combout\ $end
$var wire 1 Q \LessThan1~0_combout\ $end
$var wire 1 R \LessThan1~1_combout\ $end
$var wire 1 S \LessThan1~2_combout\ $end
$upscope $end
$upscope $end
$enddefinitions $end
#0
$dumpvars
0,
1-
x.
1/
10
11
12
13
14
0@
0A
1B
0C
0D
1E
0F
0G
0H
0I
1J
1K
0L
0M
0N
0O
0P
1Q
1R
1S
0!
0"
0#
0$
0%
1&
1'
1(
05
06
07
08
09
1:
1;
1<
1=
0>
0?
1)
0*
0+
$end
#10000
1$
1%
0'
0(
18
0<
0;
19
1F
0K
0J
1I
1L
0R
#20000
0$
1'
1#
0&
08
17
1;
0:
0E
1K
1H
0I
0L
1O
#30000
1$
0'
1(
18
1<
0;
0K
1J
1I
1L
0O
#40000
0$
1'
0#
1&
1"
08
07
16
1;
1:
1E
1K
1D
0H
0I
0L
1R
#50000
1$
0(
18
0<
0J
1I
#60000
0$
0'
1#
0%
08
17
0;
09
0F
0K
1H
0I
1L
0R
1M
0Q
0S
1N
1@
0B
1?
0=
1+
0)
#70000
1$
1(
18
1<
1J
1I
#80000
0$
0(
1'
0#
0"
1!
08
07
06
15
0<
1;
1K
0J
1C
0D
0H
0I
1G
0M
0L
1R
#90000
1$
1(
0'
18
1<
0;
0K
1J
1I
1O
0R
#100000
0$
0(
1'
1#
0&
08
17
0<
1;
0:
0E
1K
0J
1H
0I
#110000
1$
1(
0'
1%
18
1<
0;
19
1F
0K
1J
1I
1L
0O
0G
1M
#120000
0$
0(
1'
0#
1"
08
07
16
0<
1;
1K
0J
1D
0H
0I
1G
0M
0L
1R
#130000
1$
0'
18
0;
0K
1I
1L
0R
#140000
0$
1#
1&
08
17
1:
1E
1H
0I
0G
1M
#150000
1$
0&
1'
1(
0%
18
1<
1;
0:
09
0F
0E
1K
1J
1I
0L
1O
1G
0M
#160000
0$
1&
0(
0#
0"
0!
08
07
06
05
0<
1:
1E
0J
0C
0D
0H
0I
0O
1R
0G
1Q
0N
1S
1B
0@
1=
0?
0+
1)
#170000
1$
0'
1%
18
0;
19
1F
0K
1I
1L
0R
#180000
0$
1#
08
17
1H
0I
#190000
1$
1'
0%
18
1;
09
0F
1K
1I
#200000
0$
0'
1%
0#
1"
08
07
16
0;
19
1F
0K
1D
0H
0I
0L
1O
#210000
1$
1'
0&
18
1;
0:
0E
1K
1I
0O
1R
#220000
0$
1#
08
17
1H
0I
1O
0R
#230000
1$
0'
1&
0%
18
0;
1:
09
0F
1E
0K
1I
1L
0O
1M
0Q
0S
1N
1@
0B
1?
0=
1+
0)
#240000
0$
1'
0#
0"
1!
08
07
06
15
1;
1K
1C
0D
0H
0I
1G
0M
0L
1R
#250000
1$
0'
0&
1%
18
0;
0:
19
1F
0E
0K
1I
1L
0R
0G
1M
#260000
0$
1'
0%
1#
1(
08
17
1<
1;
09
0F
1K
1J
1H
0I
0L
1R
1G
0M
#270000
1$
0'
0(
18
0<
0;
0K
0J
1I
1L
0R
#280000
0$
0#
1"
08
07
16
1D
0H
0I
0L
1O
#290000
1$
1'
1(
18
1<
1;
1K
1J
1I
0O
1R
#300000
0$
1#
1%
08
17
19
1F
1H
0I
#310000
1$
0'
18
0;
0K
1I
1L
0R
#320000
0$
1'
0#
0"
1&
0!
08
07
06
05
1;
1:
1E
1K
0C
0D
0H
0I
0L
1R
0G
1Q
1S
0N
0@
1B
0?
1=
0+
1)
#330000
1$
0&
18
0:
0E
1I
#340000
0$
1#
0(
08
17
0<
0J
1H
0I
1O
0R
#350000
1$
1(
0'
0%
18
1<
0;
09
0F
0K
1J
1I
1L
0O
1M
0Q
0S
1N
1@
0B
1?
0=
1+
0)
#360000
0$
1'
1%
0#
1"
08
07
16
1;
19
1F
1K
1D
0H
0I
0L
1R
0M
1Q
1S
0N
0@
1B
0?
1=
0+
1)
#370000
1$
0(
18
0<
0J
1I
#380000
0$
1(
1#
1&
08
17
1<
1:
1E
1J
1H
0I
#390000
1$
0(
0&
0'
0%
18
0<
0;
0:
09
0F
0E
0K
0J
1I
1L
0R
1G
0Q
0S
1N
1@
0B
1?
0=
1+
0)
#400000
0$
1(
1&
1'
0#
0"
1!
08
07
06
15
1<
1;
1:
1E
1K
1J
1C
0D
0H
0I
0L
1R
#410000
1$
0&
1%
18
0:
19
1F
0E
1I
0G
1M
1S
0N
0@
1B
0?
1=
0+
1)
#420000
0$
1&
0%
0'
1#
08
17
0;
1:
09
0F
1E
0K
1H
0I
1L
0R
1G
0M
0S
1N
1@
0B
1?
0=
1+
0)
#430000
1$
0(
18
0<
0J
1I
#440000
0$
1%
0#
1"
08
07
16
19
1F
1D
0H
0I
0L
1O
0G
1M
1P
0N
0@
1A
0?
1>
0+
1*
#450000
1$
1'
18
1;
1K
1I
0O
1R
1S
0P
0A
1B
0>
1=
0*
1)
#460000
0$
1#
1(
08
17
1<
1J
1H
0I
#470000
1$
0'
0%
0&
18
0;
0:
09
0F
0E
0K
1I
1L
0R
1G
0M
0S
1N
1@
0B
1?
0=
1+
0)
#480000
0$
0#
0(
0"
0!
08
07
06
05
0<
0J
0C
0D
0H
0I
0G
1M
0L
1O
1P
0N
0@
1A
0?
1>
0+
1*
#490000
1$
1'
1%
1&
18
1;
1:
19
1F
1E
1K
1I
0O
1R
0M
1Q
1S
0P
0A
1B
0>
1=
0*
1)
#500000
0$
1#
1(
08
17
1<
1J
1H
0I
#510000
1$
0'
18
0;
0K
1I
1L
0R
#520000
0$
0#
0(
1"
08
07
16
0<
0J
1D
0H
0I
0L
1O
#530000
1$
1'
0%
18
1;
09
0F
1K
1I
0O
1R
1M
0Q
#540000
0$
1#
0&
08
17
0:
0E
1H
0I
1O
0R
1G
0M
1N
0S
0B
1@
0=
1?
1+
0)
#550000
1$
1&
1(
18
1<
1:
1E
1J
1I
0G
1M
1P
0N
0@
1A
0?
1>
0+
1*
#560000
0$
0&
0#
0'
0"
1!
08
07
06
15
0;
0:
0E
0K
1C
0D
0H
0I
0O
1R
1G
0M
1N
0P
0A
1@
0>
1?
1+
0*
#570000
1$
1&
1%
18
1:
19
1F
1E
1I
1O
0R
0G
1Q
0N
1S
1B
0@
1=
0?
0+
1)
#580000
0$
0%
1#
1'
08
17
1;
09
0F
1K
1H
0I
0O
1R
1G
0Q
1N
0S
0B
1@
0=
1?
1+
0)
#590000
1$
1%
0(
18
0<
19
1F
0J
1I
1L
0R
0G
1Q
1S
0N
0@
1B
0?
1=
0+
1)
#600000
0$
0%
1(
0#
1"
08
07
16
1<
09
0F
1J
1D
0H
0I
0L
1R
1G
0Q
0S
1N
1@
0B
1?
0=
1+
0)
#610000
1$
0&
18
0:
0E
1I
#620000
0$
1#
08
17
1H
0I
#630000
1$
1%
18
19
1F
1I
1O
0R
#640000
0$
0#
0(
0"
0'
0!
08
07
06
05
0<
0;
0K
0J
0C
0D
0H
0I
0G
1Q
1S
0N
0@
1B
0?
1=
0+
1)
#650000
1$
1'
0%
1&
18
1;
1:
09
0F
1E
1K
1I
0O
1R
#660000
0$
0&
1#
08
17
0:
0E
1H
0I
1O
0R
1M
0Q
0S
1P
1A
0B
1>
0=
1*
0)
#670000
1$
1&
18
1:
1E
1I
1L
0O
0M
1Q
1S
0P
0A
1B
0>
1=
0*
1)
#680000
0$
0&
0#
1%
1(
1"
08
07
16
1<
0:
19
1F
0E
1J
1D
0H
0I
0L
1R
#690000
1$
0(
18
0<
0J
1I
#700000
0$
1(
1&
1#
0'
08
17
1<
0;
1:
1E
0K
1J
1H
0I
1L
0R
#710000
1$
0%
18
09
0F
1I
1M
0Q
1N
0S
0B
1@
0=
1?
1+
0)
#720000
0$
0&
0#
0"
1!
08
07
06
15
0:
0E
1C
0D
0H
0I
0L
1R
1G
0M
#730000
1$
1&
18
1:
1E
1I
1O
0R
#740000
0$
1#
08
17
1H
0I
1L
0O
#750000
1$
0(
18
0<
0J
1I
#760000
0$
1(
0#
1"
1%
08
07
16
1<
19
1F
1J
1D
0H
0I
0L
1R
0G
1M
1S
0N
0@
1B
0?
1=
0+
1)
#770000
1$
0(
0%
0&
18
0<
0:
09
0F
0E
0J
1I
1L
0R
1G
0M
0S
1N
1@
0B
1?
0=
1+
0)
#780000
0$
1&
1#
08
17
1:
1E
1H
0I
#790000
1$
18
1I
#800000
0$
0&
0#
0"
0!
1'
08
07
06
05
1;
0:
0E
1K
0C
0D
0H
0I
0L
1R
0G
1M
1S
0N
0@
1B
0?
1=
0+
1)
#810000
1$
1&
0'
1(
1%
18
1<
0;
1:
19
1F
1E
0K
1J
1I
1O
0R
0M
1Q
#820000
0$
1#
08
17
1H
0I
1L
0O
#830000
1$
1'
0(
0%
18
0<
1;
09
0F
1K
0J
1I
#840000
0$
0#
1"
08
07
16
1D
0H
0I
0L
1R
1M
0Q
#850000
1$
0'
1%
18
0;
19
1F
0K
1I
1L
0R
0M
1Q
#860000
0$
1#
1(
08
17
1<
1J
1H
0I
#870000
1$
0(
1'
18
0<
1;
1K
0J
1I
#880000
0$
1(
0#
0"
1!
08
07
06
15
1<
1J
1C
0D
0H
0I
0L
1R
#890000
1$
0(
0'
18
0<
0;
0K
0J
1I
1L
0R
#900000
0$
1'
1#
08
17
1;
1K
1H
0I
0L
1O
#910000
1$
1(
0&
18
1<
0:
0E
1J
1I
1M
0Q
1P
0S
0B
1A
0=
1>
1*
0)
#920000
0$
0(
1&
0#
1"
0%
08
07
16
0<
1:
09
0F
1E
0J
1D
0H
0I
0O
1R
1G
0M
1N
0P
0A
1@
0>
1?
1+
0*
#930000
1$
1(
0&
1%
18
1<
0:
19
1F
0E
1J
1I
#940000
0$
0(
1&
1#
08
17
0<
1:
1E
0J
1H
0I
1O
0R
0G
1M
0N
1P
1A
0@
1>
0?
0+
1*
#950000
1$
0&
0%
18
0:
09
0F
0E
1I
1L
0O
1G
0M
0P
1N
1@
0A
1?
0>
1+
0*
#960000
0$
1&
1%
0#
0"
0!
08
07
06
05
1:
19
1F
1E
0C
0D
0H
0I
0L
1R
0G
1Q
1S
0N
0@
1B
0?
1=
0+
1)
#970000
1$
0'
18
0;
0K
1I
1L
0R
#980000
0$
1'
0&
0%
1#
08
17
1;
0:
09
0F
0E
1K
1H
0I
0L
1O
1M
0Q
0S
1P
1A
0B
1>
0=
1*
0)
#990000
1$
1&
1%
18
1:
19
1F
1E
1I
1L
0O
0M
1Q
1S
0P
0A
1B
0>
1=
0*
1)
