clase 3/counter_bits/simulation/qsim/counter_bits.msim.vcd
$comment
	File created using the following command:
		vcd file counter_bits.msim.vcd -direction
$end
$date
	Sat Jan 08 11:08:56 2022
$end
$version
	ModelSim Version 2020.1
$end
$timescale
	1ps
$end

$scope module counter_bits_vhd_vec_tst $end
$var wire 1 ! Q [3] $end
$var wire 1 " Q [2] $end
$var wire 1 # Q [1] $end
$var wire 1 $ Q [0] $end
$var wire 1 % reloj $end

$scope module i1 $end
$var wire 1 & gnd $end
$var wire 1 ' vcc $end
$var wire 1 ( unknown $end
$var wire 1 ) devoe $end
$var wire 1 * devclrn $end
$var wire 1 + devpor $end
$var wire 1 , ww_devoe $end
$var wire 1 - ww_devclrn $end
$var wire 1 . ww_devpor $end
$var wire 1 / ww_reloj $end
$var wire 1 0 ww_Q [3] $end
$var wire 1 1 ww_Q [2] $end
$var wire 1 2 ww_Q [1] $end
$var wire 1 3 ww_Q [0] $end
$var wire 1 4 \reloj~inputclkctrl_INCLK_bus\ [3] $end
$var wire 1 5 \reloj~inputclkctrl_INCLK_bus\ [2] $end
$var wire 1 6 \reloj~inputclkctrl_INCLK_bus\ [1] $end
$var wire 1 7 \reloj~inputclkctrl_INCLK_bus\ [0] $end
$var wire 1 8 \Q[0]~output_o\ $end
$var wire 1 9 \Q[1]~output_o\ $end
$var wire 1 : \Q[2]~output_o\ $end
$var wire 1 ; \Q[3]~output_o\ $end
$var wire 1 < \reloj~input_o\ $end
$var wire 1 = \reloj~inputclkctrl_outclk\ $end
$var wire 1 > \cont_tempo[0]~3_combout\ $end
$var wire 1 ? \cont_tempo[1]~0_combout\ $end
$var wire 1 @ \cont_tempo[2]~1_combout\ $end
$var wire 1 A \cont_tempo[3]~2_combout\ $end
$var wire 1 B cont_tempo [3] $end
$var wire 1 C cont_tempo [2] $end
$var wire 1 D cont_tempo [1] $end
$var wire 1 E cont_tempo [0] $end
$upscope $end
$upscope $end
$enddefinitions $end
#0
$dumpvars
0%
0&
1'
x(
1)
1*
1+
1,
1-
1.
0/
08
09
0:
0;
0<
0=
1>
0?
0@
0A
0!
0"
0#
0$
00
01
02
03
0B
0C
0D
0E
14
15
16
07
$end
#5000
1%
1/
1<
17
1=
1E
0>
1?
18
13
1$
#10000
0%
0/
0<
07
0=
#15000
1%
1/
1<
17
1=
0E
1D
1>
19
08
12
03
0$
1#
#20000
0%
0/
0<
07
0=
#25000
1%
1/
1<
17
1=
1E
0>
0?
1@
18
13
1$
#30000
0%
0/
0<
07
0=
#35000
1%
1/
1<
17
1=
0E
0D
1C
1>
1:
09
08
11
02
03
0$
0#
1"
#40000
0%
0/
0<
07
0=
#45000
1%
1/
1<
17
1=
1E
0>
1?
18
13
1$
#50000
0%
0/
0<
07
0=
#55000
1%
1/
1<
17
1=
0E
1D
1>
19
08
12
03
0$
1#
#60000
0%
0/
0<
07
0=
#65000
1%
1/
1<
17
1=
1E
0>
0?
0@
1A
18
13
1$
#70000
0%
0/
0<
07
0=
#75000
1%
1/
1<
17
1=
0E
0D
0C
1B
1>
1;
0:
09
08
10
01
02
03
0$
0#
0"
1!
#80000
0%
0/
0<
07
0=
#85000
1%
1/
1<
17
1=
1E
0>
1?
18
13
1$
#90000
0%
0/
0<
07
0=
#95000
1%
1/
1<
17
1=
0E
1D
1>
19
08
12
03
0$
1#
#100000
0%
0/
0<
07
0=
#105000
1%
1/
1<
17
1=
1E
0>
0?
1@
18
13
1$
#110000
0%
0/
0<
07
0=
#115000
1%
1/
1<
17
1=
0E
0D
1C
1>
1:
09
08
11
02
03
0$
0#
1"
#120000
0%
0/
0<
07
0=
#125000
1%
1/
1<
17
1=
1E
0>
1?
18
13
1$
#130000
0%
0/
0<
07
0=
#135000
1%
1/
1<
17
1=
0E
1D
1>
19
08
12
03
0$
1#
#140000
0%
0/
0<
07
0=
#145000
1%
1/
1<
17
1=
1E
0>
0?
0@
0A
18
13
1$
#150000
0%
0/
0<
07
0=
#155000
1%
1/
1<
17
1=
0E
0D
0C
0B
1>
0;
0:
09
08
00
01
02
03
0$
0#
0"
0!
#160000
0%
0/
0<
07
0=
#165000
1%
1/
1<
17
1=
1E
0>
1?
18
13
1$
#170000
0%
0/
0<
07
0=
#175000
1%
1/
1<
17
1=
0E
1D
1>
19
08
12
03
0$
1#
#180000
0%
0/
0<
07
0=
#185000
1%
1/
1<
17
1=
1E
0>
0?
1@
18
13
1$
#190000
0%
0/
0<
07
0=
#195000
1%
1/
1<
17
1=
0E
0D
1C
1>
1:
09
08
11
02
03
0$
0#
1"
#200000
0%
0/
0<
07
0=
#205000
1%
1/
1<
17
1=
1E
0>
1?
18
13
1$
#210000
0%
0/
0<
07
0=
#215000
1%
1/
1<
17
1=
0E
1D
1>
19
08
12
03
0$
1#
#220000
0%
0/
0<
07
0=
#225000
1%
1/
1<
17
1=
1E
0>
0?
0@
1A
18
13
1$
#230000
0%
0/
0<
07
0=
#235000
1%
1/
1<
17
1=
0E
0D
0C
1B
1>
1;
0:
09
08
10
01
02
03
0$
0#
0"
1!
#240000
0%
0/
0<
07
0=
#245000
1%
1/
1<
17
1=
1E
0>
1?
18
13
1$
#250000
0%
0/
0<
07
0=
#255000
1%
1/
1<
17
1=
0E
1D
1>
19
08
12
03
0$
1#
#260000
0%
0/
0<
07
0=
#265000
1%
1/
1<
17
1=
1E
0>
0?
1@
18
13
1$
#270000
0%
0/
0<
07
0=
#275000
1%
1/
1<
17
1=
0E
0D
1C
1>
1:
09
08
11
02
03
0$
0#
1"
#280000
0%
0/
0<
07
0=
#285000
1%
1/
1<
17
1=
1E
0>
1?
18
13
1$
#290000
0%
0/
0<
07
0=
#295000
1%
1/
1<
17
1=
0E
1D
1>
19
08
12
03
0$
1#
#300000
0%
0/
0<
07
0=
#305000
1%
1/
1<
17
1=
1E
0>
0?
0@
0A
18
13
1$
#310000
0%
0/
0<
07
0=
#315000
1%
1/
1<
17
1=
0E
0D
0C
0B
1>
0;
0:
09
08
00
01
02
03
0$
0#
0"
0!
#320000
0%
0/
0<
07
0=
#325000
1%
1/
1<
17
1=
1E
0>
1?
18
13
1$
#330000
0%
0/
0<
07
0=
#335000
1%
1/
1<
17
1=
0E
1D
1>
19
08
12
03
0$
1#
#340000
0%
0/
0<
07
0=
#345000
1%
1/
1<
17
1=
1E
0>
0?
1@
18
13
1$
#350000
0%
0/
0<
07
0=
#355000
1%
1/
1<
17
1=
0E
0D
1C
1>
1:
09
08
11
02
03
0$
0#
1"
#360000
0%
0/
0<
07
0=
#365000
1%
1/
1<
17
1=
1E
0>
1?
18
13
1$
#370000
0%
0/
0<
07
0=
#375000
1%
1/
1<
17
1=
0E
1D
1>
19
08
12
03
0$
1#
#380000
0%
0/
0<
07
0=
#385000
1%
1/
1<
17
1=
1E
0>
0?
0@
1A
18
13
1$
#390000
0%
0/
0<
07
0=
#395000
1%
1/
1<
17
1=
0E
0D
0C
1B
1>
1;
0:
09
08
10
01
02
03
0$
0#
0"
1!
#400000
0%
0/
0<
07
0=
#405000
1%
1/
1<
17
1=
1E
0>
1?
18
13
1$
#410000
0%
0/
0<
07
0=
#415000
1%
1/
1<
17
1=
0E
1D
1>
19
08
12
03
0$
1#
#420000
0%
0/
0<
07
0=
#425000
1%
1/
1<
17
1=
1E
0>
0?
1@
18
13
1$
#430000
0%
0/
0<
07
0=
#435000
1%
1/
1<
17
1=
0E
0D
1C
1>
1:
09
08
11
02
03
0$
0#
1"
#440000
0%
0/
0<
07
0=
#445000
1%
1/
1<
17
1=
1E
0>
1?
18
13
1$
#450000
0%
0/
0<
07
0=
#455000
1%
1/
1<
17
1=
0E
1D
1>
19
08
12
03
0$
1#
#460000
0%
0/
0<
07
0=
#465000
1%
1/
1<
17
1=
1E
0>
0?
0@
0A
18
13
1$
#470000
0%
0/
0<
07
0=
#475000
1%
1/
1<
17
1=
0E
0D
0C
0B
1>
0;
0:
09
08
00
01
02
03
0$
0#
0"
0!
#480000
0%
0/
0<
07
0=
#485000
1%
1/
1<
17
1=
1E
0>
1?
18
13
1$
#490000
0%
0/
0<
07
0=
#495000
1%
1/
1<
17
1=
0E
1D
1>
19
08
12
03
0$
1#
#500000
0%
0/
0<
07
0=
#505000
1%
1/
1<
17
1=
1E
0>
0?
1@
18
13
1$
#510000
0%
0/
0<
07
0=
#515000
1%
1/
1<
17
1=
0E
0D
1C
1>
1:
09
08
11
02
03
0$
0#
1"
#520000
0%
0/
0<
07
0=
#525000
1%
1/
1<
17
1=
1E
0>
1?
18
13
1$
#530000
0%
0/
0<
07
0=
#535000
1%
1/
1<
17
1=
0E
1D
1>
19
08
12
03
0$
1#
#540000
0%
0/
0<
07
0=
#545000
1%
1/
1<
17
1=
1E
0>
0?
0@
1A
18
13
1$
#550000
0%
0/
0<
07
0=
#555000
1%
1/
1<
17
1=
0E
0D
0C
1B
1>
1;
0:
09
08
10
01
02
03
0$
0#
0"
1!
#560000
0%
0/
0<
07
0=
#565000
1%
1/
1<
17
1=
1E
0>
1?
18
13
1$
#570000
0%
0/
0<
07
0=
#575000
1%
1/
1<
17
1=
0E
1D
1>
19
08
12
03
0$
1#
#580000
0%
0/
0<
07
0=
#585000
1%
1/
1<
17
1=
1E
0>
0?
1@
18
13
1$
#590000
0%
0/
0<
07
0=
#595000
1%
1/
1<
17
1=
0E
0D
1C
1>
1:
09
08
11
02
03
0$
0#
1"
#600000
0%
0/
0<
07
0=
#605000
1%
1/
1<
17
1=
1E
0>
1?
18
13
1$
#610000
0%
0/
0<
07
0=
#615000
1%
1/
1<
17
1=
0E
1D
1>
19
08
12
03
0$
1#
#620000
0%
0/
0<
07
0=
#625000
1%
1/
1<
17
1=
1E
0>
0?
0@
0A
18
13
1$
#630000
0%
0/
0<
07
0=
#635000
1%
1/
1<
17
1=
0E
0D
0C
0B
1>
0;
0:
09
08
00
01
02
03
0$
0#
0"
0!
#640000
0%
0/
0<
07
0=
#645000
1%
1/
1<
17
1=
1E
0>
1?
18
13
1$
#650000
0%
0/
0<
07
0=
#655000
1%
1/
1<
17
1=
0E
1D
1>
19
08
12
03
0$
1#
#660000
0%
0/
0<
07
0=
#665000
1%
1/
1<
17
1=
1E
0>
0?
1@
18
13
1$
#670000
0%
0/
0<
07
0=
#675000
1%
1/
1<
17
1=
0E
0D
1C
1>
1:
09
08
11
02
03
0$
0#
1"
#680000
0%
0/
0<
07
0=
#685000
1%
1/
1<
17
1=
1E
0>
1?
18
13
1$
#690000
0%
0/
0<
07
0=
#695000
1%
1/
1<
17
1=
0E
1D
1>
19
08
12
03
0$
1#
#700000
0%
0/
0<
07
0=
#705000
1%
1/
1<
17
1=
1E
0>
0?
0@
1A
18
13
1$
#710000
0%
0/
0<
07
0=
#715000
1%
1/
1<
17
1=
0E
0D
0C
1B
1>
1;
0:
09
08
10
01
02
03
0$
0#
0"
1!
#720000
0%
0/
0<
07
0=
#725000
1%
1/
1<
17
1=
1E
0>
1?
18
13
1$
#730000
0%
0/
0<
07
0=
#735000
1%
1/
1<
17
1=
0E
1D
1>
19
08
12
03
0$
1#
#740000
0%
0/
0<
07
0=
#745000
1%
1/
1<
17
1=
1E
0>
0?
1@
18
13
1$
#750000
0%
0/
0<
07
0=
#755000
1%
1/
1<
17
1=
0E
0D
1C
1>
1:
09
08
11
02
03
0$
0#
1"
#760000
0%
0/
0<
07
0=
#765000
1%
1/
1<
17
1=
1E
0>
1?
18
13
1$
#770000
0%
0/
0<
07
0=
#775000
1%
1/
1<
17
1=
0E
1D
1>
19
08
12
03
0$
1#
#780000
0%
0/
0<
07
0=
#785000
1%
1/
1<
17
1=
1E
0>
0?
0@
0A
18
13
1$
#790000
0%
0/
0<
07
0=
#795000
1%
1/
1<
17
1=
0E
0D
0C
0B
1>
0;
0:
09
08
00
01
02
03
0$
0#
0"
0!
#800000
0%
0/
0<
07
0=
#805000
1%
1/
1<
17
1=
1E
0>
1?
18
13
1$
#810000
0%
0/
0<
07
0=
#815000
1%
1/
1<
17
1=
0E
1D
1>
19
08
12
03
0$
1#
#820000
0%
0/
0<
07
0=
#825000
1%
1/
1<
17
1=
1E
0>
0?
1@
18
13
1$
#830000
0%
0/
0<
07
0=
#835000
1%
1/
1<
17
1=
0E
0D
1C
1>
1:
09
08
11
02
03
0$
0#
1"
#840000
0%
0/
0<
07
0=
#845000
1%
1/
1<
17
1=
1E
0>
1?
18
13
1$
#850000
0%
0/
0<
07
0=
#855000
1%
1/
1<
17
1=
0E
1D
1>
19
08
12
03
0$
1#
#860000
0%
0/
0<
07
0=
#865000
1%
1/
1<
17
1=
1E
0>
0?
0@
1A
18
13
1$
#870000
0%
0/
0<
07
0=
#875000
1%
1/
1<
17
1=
0E
0D
0C
1B
1>
1;
0:
09
08
10
01
02
03
0$
0#
0"
1!
#880000
0%
0/
0<
07
0=
#885000
1%
1/
1<
17
1=
1E
0>
1?
18
13
1$
#890000
0%
0/
0<
07
0=
#895000
1%
1/
1<
17
1=
0E
1D
1>
19
08
12
03
0$
1#
#900000
0%
0/
0<
07
0=
#905000
1%
1/
1<
17
1=
1E
0>
0?
1@
18
13
1$
#910000
0%
0/
0<
07
0=
#915000
1%
1/
1<
17
1=
0E
0D
1C
1>
1:
09
08
11
02
03
0$
0#
1"
#920000
0%
0/
0<
07
0=
#925000
1%
1/
1<
17
1=
1E
0>
1?
18
13
1$
#930000
0%
0/
0<
07
0=
#935000
1%
1/
1<
17
1=
0E
1D
1>
19
08
12
03
0$
1#
#940000
0%
0/
0<
07
0=
#945000
1%
1/
1<
17
1=
1E
0>
0?
0@
0A
18
13
1$
#950000
0%
0/
0<
07
0=
#955000
1%
1/
1<
17
1=
0E
0D
0C
0B
1>
0;
0:
09
08
00
01
02
03
0$
0#
0"
0!
#960000
0%
0/
0<
07
0=
#965000
1%
1/
1<
17
1=
1E
0>
1?
18
13
1$
#970000
0%
0/
0<
07
0=
#975000
1%
1/
1<
17
1=
0E
1D
1>
19
08
12
03
0$
1#
#980000
0%
0/
0<
07
0=
#985000
1%
1/
1<
17
1=
1E
0>
0?
1@
18
13
1$
#990000
0%
0/
0<
07
0=
#995000
1%
1/
1<
17
1=
0E
0D
1C
1>
1:
09
08
11
02
03
0$
0#
1"
