clase 3/case_sentence/simulation/qsim/case_sentence.msim.vcd
$comment
	File created using the following command:
		vcd file case_sentence.msim.vcd -direction
$end
$date
	Tue Jan 11 11:47:42 2022
$end
$version
	ModelSim Version 2020.1
$end
$timescale
	1ps
$end

$scope module case_sentence_vhd_vec_tst $end
$var wire 1 ! A $end
$var wire 1 " B $end
$var wire 1 # C $end
$var wire 1 $ Salida [7] $end
$var wire 1 % Salida [6] $end
$var wire 1 & Salida [5] $end
$var wire 1 ' Salida [4] $end
$var wire 1 ( Salida [3] $end
$var wire 1 ) Salida [2] $end
$var wire 1 * Salida [1] $end
$var wire 1 + Salida [0] $end

$scope module i1 $end
$var wire 1 , gnd $end
$var wire 1 - vcc $end
$var wire 1 . unknown $end
$var wire 1 / devoe $end
$var wire 1 0 devclrn $end
$var wire 1 1 devpor $end
$var wire 1 2 ww_devoe $end
$var wire 1 3 ww_devclrn $end
$var wire 1 4 ww_devpor $end
$var wire 1 5 ww_A $end
$var wire 1 6 ww_B $end
$var wire 1 7 ww_C $end
$var wire 1 8 ww_Salida [7] $end
$var wire 1 9 ww_Salida [6] $end
$var wire 1 : ww_Salida [5] $end
$var wire 1 ; ww_Salida [4] $end
$var wire 1 < ww_Salida [3] $end
$var wire 1 = ww_Salida [2] $end
$var wire 1 > ww_Salida [1] $end
$var wire 1 ? ww_Salida [0] $end
$var wire 1 @ \Salida[0]~output_o\ $end
$var wire 1 A \Salida[1]~output_o\ $end
$var wire 1 B \Salida[2]~output_o\ $end
$var wire 1 C \Salida[3]~output_o\ $end
$var wire 1 D \Salida[4]~output_o\ $end
$var wire 1 E \Salida[5]~output_o\ $end
$var wire 1 F \Salida[6]~output_o\ $end
$var wire 1 G \Salida[7]~output_o\ $end
$var wire 1 H \C~input_o\ $end
$var wire 1 I \A~input_o\ $end
$var wire 1 J \B~input_o\ $end
$var wire 1 K \Mux7~0_combout\ $end
$var wire 1 L \Mux7~1_combout\ $end
$var wire 1 M \Mux7~2_combout\ $end
$var wire 1 N \Mux7~3_combout\ $end
$var wire 1 O \Mux7~4_combout\ $end
$var wire 1 P \Mux7~5_combout\ $end
$var wire 1 Q \Mux7~6_combout\ $end
$var wire 1 R \Mux7~7_combout\ $end
$upscope $end
$upscope $end
$enddefinitions $end
#0
$dumpvars
0!
0"
0#
0,
1-
x.
1/
10
11
12
13
14
05
06
07
1@
0A
0B
0C
0D
0E
0F
0G
0H
0I
0J
1K
0L
0M
0N
0O
0P
0Q
0R
08
09
0:
0;
0<
0=
0>
1?
0$
0%
0&
0'
0(
0)
0*
1+
$end
#10000
1#
17
1H
0K
1L
1A
0@
1>
0?
0+
1*
#20000
0#
1"
07
16
1J
0H
0L
1M
1B
0A
1=
0>
0*
1)
#30000
1#
17
1H
0M
1N
1C
0B
1<
0=
0)
1(
#40000
0#
0"
1!
07
06
15
1I
0J
0H
0N
1O
1D
0C
1;
0<
0(
1'
#50000
1#
17
1H
0O
1P
1E
0D
1:
0;
0'
1&
#60000
0#
1"
07
16
1J
0H
0P
1Q
1F
0E
19
0:
0&
1%
#70000
1#
17
1H
0Q
1R
1G
0F
18
09
0%
1$
#80000
0#
0"
0!
07
06
05
0I
0J
0H
1K
0R
0G
1@
08
1?
1+
0$
#90000
1#
17
1H
0K
1L
1A
0@
1>
0?
0+
1*
#100000
0#
1"
07
16
1J
0H
0L
1M
1B
0A
1=
0>
0*
1)
#110000
1#
17
1H
0M
1N
1C
0B
1<
0=
0)
1(
#120000
0#
0"
1!
07
06
15
1I
0J
0H
0N
1O
1D
0C
1;
0<
0(
1'
#130000
1#
17
1H
0O
1P
1E
0D
1:
0;
0'
1&
#140000
0#
1"
07
16
1J
0H
0P
1Q
1F
0E
19
0:
0&
1%
#150000
1#
17
1H
0Q
1R
1G
0F
18
09
0%
1$
#160000
0#
0"
0!
07
06
05
0I
0J
0H
1K
0R
0G
1@
08
1?
1+
0$
#170000
1#
17
1H
0K
1L
1A
0@
1>
0?
0+
1*
#180000
0#
1"
07
16
1J
0H
0L
1M
1B
0A
1=
0>
0*
1)
#190000
1#
17
1H
0M
1N
1C
0B
1<
0=
0)
1(
#200000
0#
0"
1!
07
06
15
1I
0J
0H
0N
1O
1D
0C
1;
0<
0(
1'
#210000
1#
17
1H
0O
1P
1E
0D
1:
0;
0'
1&
#220000
0#
1"
07
16
1J
0H
0P
1Q
1F
0E
19
0:
0&
1%
#230000
1#
17
1H
0Q
1R
1G
0F
18
09
0%
1$
#240000
0#
0"
0!
07
06
05
0I
0J
0H
1K
0R
0G
1@
08
1?
1+
0$
#250000
1#
17
1H
0K
1L
1A
0@
1>
0?
0+
1*
#260000
0#
1"
07
16
1J
0H
0L
1M
1B
0A
1=
0>
0*
1)
#270000
1#
17
1H
0M
1N
1C
0B
1<
0=
0)
1(
#280000
0#
0"
1!
07
06
15
1I
0J
0H
0N
1O
1D
0C
1;
0<
0(
1'
#290000
1#
17
1H
0O
1P
1E
0D
1:
0;
0'
1&
#300000
0#
1"
07
16
1J
0H
0P
1Q
1F
0E
19
0:
0&
1%
#310000
1#
17
1H
0Q
1R
1G
0F
18
09
0%
1$
#320000
0#
0"
0!
07
06
05
0I
0J
0H
1K
0R
0G
1@
08
1?
1+
0$
#330000
1#
17
1H
0K
1L
1A
0@
1>
0?
0+
1*
#340000
0#
1"
07
16
1J
0H
0L
1M
1B
0A
1=
0>
0*
1)
#350000
1#
17
1H
0M
1N
1C
0B
1<
0=
0)
1(
#360000
0#
0"
1!
07
06
15
1I
0J
0H
0N
1O
1D
0C
1;
0<
0(
1'
#370000
1#
17
1H
0O
1P
1E
0D
1:
0;
0'
1&
#380000
0#
1"
07
16
1J
0H
0P
1Q
1F
0E
19
0:
0&
1%
#390000
1#
17
1H
0Q
1R
1G
0F
18
09
0%
1$
#400000
0#
0"
0!
07
06
05
0I
0J
0H
1K
0R
0G
1@
08
1?
1+
0$
#410000
1#
17
1H
0K
1L
1A
0@
1>
0?
0+
1*
#420000
0#
1"
07
16
1J
0H
0L
1M
1B
0A
1=
0>
0*
1)
#430000
1#
17
1H
0M
1N
1C
0B
1<
0=
0)
1(
#440000
0#
0"
1!
07
06
15
1I
0J
0H
0N
1O
1D
0C
1;
0<
0(
1'
#450000
1#
17
1H
0O
1P
1E
0D
1:
0;
0'
1&
#460000
0#
1"
07
16
1J
0H
0P
1Q
1F
0E
19
0:
0&
1%
#470000
1#
17
1H
0Q
1R
1G
0F
18
09
0%
1$
#480000
0#
0"
0!
07
06
05
0I
0J
0H
1K
0R
0G
1@
08
1?
1+
0$
#490000
1#
17
1H
0K
1L
1A
0@
1>
0?
0+
1*
#500000
0#
1"
07
16
1J
0H
0L
1M
1B
0A
1=
0>
0*
1)
#510000
1#
17
1H
0M
1N
1C
0B
1<
0=
0)
1(
#520000
0#
0"
1!
07
06
15
1I
0J
0H
0N
1O
1D
0C
1;
0<
0(
1'
#530000
1#
17
1H
0O
1P
1E
0D
1:
0;
0'
1&
#540000
0#
1"
07
16
1J
0H
0P
1Q
1F
0E
19
0:
0&
1%
#550000
1#
17
1H
0Q
1R
1G
0F
18
09
0%
1$
#560000
0#
0"
0!
07
06
05
0I
0J
0H
1K
0R
0G
1@
08
1?
1+
0$
#570000
1#
17
1H
0K
1L
1A
0@
1>
0?
0+
1*
#580000
0#
1"
07
16
1J
0H
0L
1M
1B
0A
1=
0>
0*
1)
#590000
1#
17
1H
0M
1N
1C
0B
1<
0=
0)
1(
#600000
0#
0"
1!
07
06
15
1I
0J
0H
0N
1O
1D
0C
1;
0<
0(
1'
#610000
1#
17
1H
0O
1P
1E
0D
1:
0;
0'
1&
#620000
0#
1"
07
16
1J
0H
0P
1Q
1F
0E
19
0:
0&
1%
#630000
1#
17
1H
0Q
1R
1G
0F
18
09
0%
1$
#640000
0#
0"
0!
07
06
05
0I
0J
0H
1K
0R
0G
1@
08
1?
1+
0$
#650000
1#
17
1H
0K
1L
1A
0@
1>
0?
0+
1*
#660000
0#
1"
07
16
1J
0H
0L
1M
1B
0A
1=
0>
0*
1)
#670000
1#
17
1H
0M
1N
1C
0B
1<
0=
0)
1(
#680000
0#
0"
1!
07
06
15
1I
0J
0H
0N
1O
1D
0C
1;
0<
0(
1'
#690000
1#
17
1H
0O
1P
1E
0D
1:
0;
0'
1&
#700000
0#
1"
07
16
1J
0H
0P
1Q
1F
0E
19
0:
0&
1%
#710000
1#
17
1H
0Q
1R
1G
0F
18
09
0%
1$
#720000
0#
0"
0!
07
06
05
0I
0J
0H
1K
0R
0G
1@
08
1?
1+
0$
#730000
1#
17
1H
0K
1L
1A
0@
1>
0?
0+
1*
#740000
0#
1"
07
16
1J
0H
0L
1M
1B
0A
1=
0>
0*
1)
#750000
1#
17
1H
0M
1N
1C
0B
1<
0=
0)
1(
#760000
0#
0"
1!
07
06
15
1I
0J
0H
0N
1O
1D
0C
1;
0<
0(
1'
#770000
1#
17
1H
0O
1P
1E
0D
1:
0;
0'
1&
#780000
0#
1"
07
16
1J
0H
0P
1Q
1F
0E
19
0:
0&
1%
#790000
1#
17
1H
0Q
1R
1G
0F
18
09
0%
1$
#800000
0#
0"
0!
07
06
05
0I
0J
0H
1K
0R
0G
1@
08
1?
1+
0$
#810000
1#
17
1H
0K
1L
1A
0@
1>
0?
0+
1*
#820000
0#
1"
07
16
1J
0H
0L
1M
1B
0A
1=
0>
0*
1)
#830000
1#
17
1H
0M
1N
1C
0B
1<
0=
0)
1(
#840000
0#
0"
1!
07
06
15
1I
0J
0H
0N
1O
1D
0C
1;
0<
0(
1'
#850000
1#
17
1H
0O
1P
1E
0D
1:
0;
0'
1&
#860000
0#
1"
07
16
1J
0H
0P
1Q
1F
0E
19
0:
0&
1%
#870000
1#
17
1H
0Q
1R
1G
0F
18
09
0%
1$
#880000
0#
0"
0!
07
06
05
0I
0J
0H
1K
0R
0G
1@
08
1?
1+
0$
#890000
1#
17
1H
0K
1L
1A
0@
1>
0?
0+
1*
#900000
0#
1"
07
16
1J
0H
0L
1M
1B
0A
1=
0>
0*
1)
#910000
1#
17
1H
0M
1N
1C
0B
1<
0=
0)
1(
#920000
0#
0"
1!
07
06
15
1I
0J
0H
0N
1O
1D
0C
1;
0<
0(
1'
#930000
1#
17
1H
0O
1P
1E
0D
1:
0;
0'
1&
#940000
0#
1"
07
16
1J
0H
0P
1Q
1F
0E
19
0:
0&
1%
#950000
1#
17
1H
0Q
1R
1G
0F
18
09
0%
1$
#960000
0#
0"
0!
07
06
05
0I
0J
0H
1K
0R
0G
1@
08
1?
1+
0$
#970000
1#
17
1H
0K
1L
1A
0@
1>
0?
0+
1*
#980000
0#
1"
07
16
1J
0H
0L
1M
1B
0A
1=
0>
0*
1)
#990000
1#
17
1H
0M
1N
1C
0B
1<
0=
0)
1(
