proyectos/lcd_try_2/simulation/qsim/lcd_hi.msim.vcd
$comment
	File created using the following command:
		vcd file lcd_hi.msim.vcd -direction
$end
$date
	Thu Jan 13 11:54:02 2022
$end
$version
	ModelSim Version 2020.1
$end
$timescale
	1ps
$end

$scope module lcd_hi_vhd_vec_tst $end
$var wire 1 ! data [7] $end
$var wire 1 " data [6] $end
$var wire 1 # data [5] $end
$var wire 1 $ data [4] $end
$var wire 1 % data [3] $end
$var wire 1 & data [2] $end
$var wire 1 ' data [1] $end
$var wire 1 ( data [0] $end
$var wire 1 ) en $end
$var wire 1 * entrada_reloj $end
$var wire 1 + rs $end
$var wire 1 , salida_reloj $end

$scope module i1 $end
$var wire 1 - gnd $end
$var wire 1 . vcc $end
$var wire 1 / unknown $end
$var wire 1 0 devoe $end
$var wire 1 1 devclrn $end
$var wire 1 2 devpor $end
$var wire 1 3 ww_devoe $end
$var wire 1 4 ww_devclrn $end
$var wire 1 5 ww_devpor $end
$var wire 1 6 ww_entrada_reloj $end
$var wire 1 7 ww_rs $end
$var wire 1 8 ww_en $end
$var wire 1 9 ww_salida_reloj $end
$var wire 1 : ww_data [7] $end
$var wire 1 ; ww_data [6] $end
$var wire 1 < ww_data [5] $end
$var wire 1 = ww_data [4] $end
$var wire 1 > ww_data [3] $end
$var wire 1 ? ww_data [2] $end
$var wire 1 @ ww_data [1] $end
$var wire 1 A ww_data [0] $end
$var wire 1 B \rs~output_o\ $end
$var wire 1 C \en~output_o\ $end
$var wire 1 D \salida_reloj~output_o\ $end
$var wire 1 E \data[0]~output_o\ $end
$var wire 1 F \data[1]~output_o\ $end
$var wire 1 G \data[2]~output_o\ $end
$var wire 1 H \data[3]~output_o\ $end
$var wire 1 I \data[4]~output_o\ $end
$var wire 1 J \data[5]~output_o\ $end
$var wire 1 K \data[6]~output_o\ $end
$var wire 1 L \data[7]~output_o\ $end
$var wire 1 M \entrada_reloj~input_o\ $end
$var wire 1 N \Add0~0_combout\ $end
$var wire 1 O \Add0~1\ $end
$var wire 1 P \Add0~2_combout\ $end
$var wire 1 Q \Add0~3\ $end
$var wire 1 R \Add0~4_combout\ $end
$var wire 1 S \Add0~5\ $end
$var wire 1 T \Add0~6_combout\ $end
$var wire 1 U \contador~0_combout\ $end
$var wire 1 V \Add0~7\ $end
$var wire 1 W \Add0~8_combout\ $end
$var wire 1 X \Add0~9\ $end
$var wire 1 Y \Add0~10_combout\ $end
$var wire 1 Z \Equal0~0_combout\ $end
$var wire 1 [ \Add0~11\ $end
$var wire 1 \ \Add0~12_combout\ $end
$var wire 1 ] \Add0~13\ $end
$var wire 1 ^ \Add0~14_combout\ $end
$var wire 1 _ \contador~1_combout\ $end
$var wire 1 ` \Equal0~1_combout\ $end
$var wire 1 a \Add0~15\ $end
$var wire 1 b \Add0~16_combout\ $end
$var wire 1 c \contador~3_combout\ $end
$var wire 1 d \Add0~17\ $end
$var wire 1 e \Add0~18_combout\ $end
$var wire 1 f \contador~4_combout\ $end
$var wire 1 g \Add0~19\ $end
$var wire 1 h \Add0~20_combout\ $end
$var wire 1 i \Add0~21\ $end
$var wire 1 j \Add0~22_combout\ $end
$var wire 1 k \Add0~23\ $end
$var wire 1 l \Add0~24_combout\ $end
$var wire 1 m \contador~2_combout\ $end
$var wire 1 n \Equal0~2_combout\ $end
$var wire 1 o \Equal0~3_combout\ $end
$var wire 1 p \out_div~0_combout\ $end
$var wire 1 q \out_div~q\ $end
$var wire 1 r contador [12] $end
$var wire 1 s contador [11] $end
$var wire 1 t contador [10] $end
$var wire 1 u contador [9] $end
$var wire 1 v contador [8] $end
$var wire 1 w contador [7] $end
$var wire 1 x contador [6] $end
$var wire 1 y contador [5] $end
$var wire 1 z contador [4] $end
$var wire 1 { contador [3] $end
$var wire 1 | contador [2] $end
$var wire 1 } contador [1] $end
$var wire 1 ~ contador [0] $end
$upscope $end
$upscope $end
$enddefinitions $end
#0
$dumpvars
0)
0*
0+
0,
0-
1.
x/
10
11
12
13
14
15
06
07
08
09
0B
0C
0D
0E
0F
0G
0H
0I
0J
0K
0L
0M
1N
0O
0P
1Q
0R
0S
0T
0U
1V
0W
0X
0Y
0Z
1[
0\
0]
0^
0_
0`
1a
0b
0c
0d
0e
0f
1g
0h
0i
0j
1k
0l
0m
0n
0o
0p
0q
0:
0;
0<
0=
0>
0?
0@
0A
0r
0s
0t
0u
0v
0w
0x
0y
0z
0{
0|
0}
0~
0!
0"
0#
0$
0%
0&
0'
0(
$end
#100
1*
16
1M
1~
0N
1O
1P
#200
0*
06
0M
#300
1*
16
1M
0~
1}
0P
0Q
1N
0O
1P
1Q
1R
0R
#400
0*
06
0M
#500
1*
16
1M
1~
0N
1O
0P
0Q
1R
#600
0*
06
0M
#700
1*
16
1M
0~
0}
1|
0R
1S
1Z
1P
1Q
1N
0O
0P
1R
0S
1T
1U
0T
0U
#800
0*
06
0M
#900
1*
16
1M
1~
0N
1O
1P
#1000
0*
06
0M
#1100
1*
16
1M
0~
1}
0P
0Q
1N
0O
1P
1Q
0R
1S
1T
1R
0S
0T
1U
0U
#1200
0*
06
0M
#1300
1*
16
1M
1~
0N
1O
0P
0Q
0R
1S
1T
1U
#1400
0*
06
0M
#1500
1*
16
1M
0~
0}
0|
1{
0T
0V
1R
0S
0Z
1P
1Q
1N
0O
0P
0R
1T
1V
1W
0U
0W
1U
#1600
0*
06
0M
#1700
1*
16
1M
1~
0N
1O
1P
#1800
0*
06
0M
#1900
1*
16
1M
0~
1}
0P
0Q
1N
0O
1P
1Q
1R
0R
#2000
0*
06
0M
#2100
1*
16
1M
1~
0N
1O
0P
0Q
1R
#2200
0*
06
0M
#2300
1*
16
1M
0~
0}
1|
0R
1S
1P
1Q
1N
0O
0P
1R
0S
0T
0V
1W
0U
1T
1V
0W
1U
#2400
0*
06
0M
#2500
1*
16
1M
1~
0N
1O
1P
#2600
0*
06
0M
#2700
1*
16
1M
0~
1}
0P
0Q
1N
0O
1P
1Q
0R
1S
0T
0V
1R
0S
1T
1V
1W
0U
0W
1U
#2800
0*
06
0M
#2900
1*
16
1M
1~
0N
1O
0P
0Q
0R
1S
0T
0V
1W
0U
#3000
0*
06
0M
#3100
1*
16
1M
0~
0}
0|
0{
1z
0W
1X
1T
1V
1R
0S
1P
1Q
1N
0O
0P
0R
0T
1W
0X
1U
1Y
0Y
0U
#3200
0*
06
0M
#3300
1*
16
1M
1~
0N
1O
1P
#3400
0*
06
0M
#3500
1*
16
1M
0~
1}
0P
0Q
1N
0O
1P
1Q
1R
0R
#3600
0*
06
0M
#3700
1*
16
1M
1~
0N
1O
0P
0Q
1R
#3800
0*
06
0M
#3900
1*
16
1M
0~
0}
1|
0R
1S
1P
1Q
1N
0O
0P
1R
0S
1T
1U
0T
0U
#4000
0*
06
0M
#4100
1*
16
1M
1~
0N
1O
1P
#4200
0*
06
0M
#4300
1*
16
1M
0~
1}
0P
0Q
1N
0O
1P
1Q
0R
1S
1T
1R
0S
0T
1U
0U
#4400
0*
06
0M
#4500
1*
16
1M
1~
0N
1O
0P
0Q
0R
1S
1T
1U
#4600
0*
06
0M
#4700
1*
16
1M
0~
0}
0|
1{
0T
0V
1R
0S
1P
1Q
1N
0O
0P
0R
1T
1V
0W
1X
0U
1Y
1W
0X
1U
0Y
#4800
0*
06
0M
#4900
1*
16
1M
1~
0N
1O
1P
#5000
0*
06
0M
#5100
1*
16
1M
0~
1}
0P
0Q
1N
0O
1P
1Q
1R
0R
#5200
0*
06
0M
#5300
1*
16
1M
1~
0N
1O
0P
0Q
1R
#5400
0*
06
0M
#5500
1*
16
1M
0~
0}
1|
0R
1S
1P
1Q
1N
0O
0P
1R
0S
0T
0V
0W
1X
0U
1T
1V
1W
0X
1U
1Y
0Y
#5600
0*
06
0M
#5700
1*
16
1M
1~
0N
1O
1P
#5800
0*
06
0M
#5900
1*
16
1M
0~
1}
0P
0Q
1N
0O
1P
1Q
0R
1S
0T
0V
1R
0S
1T
1V
0W
1X
0U
1Y
1W
0X
1U
0Y
#6000
0*
06
0M
#6100
1*
16
1M
1~
0N
1O
0P
0Q
0R
1S
0T
0V
0W
1X
0U
1Y
#6200
0*
06
0M
#6300
1*
16
1M
0~
0}
0|
0{
0z
1y
0Y
0[
1W
0X
1T
1V
1R
0S
1P
1Q
1N
0O
0P
0R
0T
0W
1U
1Y
1[
1\
0\
0U
#6400
0*
06
0M
#6500
1*
16
1M
1~
0N
1O
1P
#6600
0*
06
0M
#6700
1*
16
1M
0~
1}
0P
0Q
1N
0O
1P
1Q
1R
0R
#6800
0*
06
0M
#6900
1*
16
1M
1~
0N
1O
0P
0Q
1R
#7000
0*
06
0M
#7100
1*
16
1M
0~
0}
1|
0R
1S
1P
1Q
1N
0O
0P
1R
0S
1T
1U
0T
0U
#7200
0*
06
0M
#7300
1*
16
1M
1~
0N
1O
1P
#7400
0*
06
0M
#7500
1*
16
1M
0~
1}
0P
0Q
1N
0O
1P
1Q
0R
1S
1T
1R
0S
0T
1U
0U
#7600
0*
06
0M
#7700
1*
16
1M
1~
0N
1O
0P
0Q
0R
1S
1T
1U
#7800
0*
06
0M
#7900
1*
16
1M
0~
0}
0|
1{
0T
0V
1R
0S
1P
1Q
1N
0O
0P
0R
1T
1V
1W
0U
0W
1U
#8000
0*
06
0M
#8100
1*
16
1M
1~
0N
1O
1P
#8200
0*
06
0M
#8300
1*
16
1M
0~
1}
0P
0Q
1N
0O
1P
1Q
1R
0R
#8400
0*
06
0M
#8500
1*
16
1M
1~
0N
1O
0P
0Q
1R
#8600
0*
06
0M
#8700
1*
16
1M
0~
0}
1|
0R
1S
1P
1Q
1N
0O
0P
1R
0S
0T
0V
1W
0U
1T
1V
0W
1U
#8800
0*
06
0M
#8900
1*
16
1M
1~
0N
1O
1P
#9000
0*
06
0M
#9100
1*
16
1M
0~
1}
0P
0Q
1N
0O
1P
1Q
0R
1S
0T
0V
1R
0S
1T
1V
1W
0U
0W
1U
#9200
0*
06
0M
#9300
1*
16
1M
1~
0N
1O
0P
0Q
0R
1S
0T
0V
1W
0U
#9400
0*
06
0M
#9500
1*
16
1M
0~
0}
0|
0{
1z
0W
1X
1T
1V
1R
0S
1P
1Q
1N
0O
0P
0R
0T
1W
0X
1U
0Y
0[
1\
1Y
1[
0U
0\
#9600
0*
06
0M
#9700
1*
16
1M
1~
0N
1O
1P
#9800
0*
06
0M
#9900
1*
16
1M
0~
1}
0P
0Q
1N
0O
1P
1Q
1R
0R
#10000
0*
06
0M
#10100
1*
16
1M
1~
0N
1O
0P
0Q
1R
#10200
0*
06
0M
#10300
1*
16
1M
0~
0}
1|
0R
1S
1P
1Q
1N
0O
0P
1R
0S
1T
1U
0T
0U
#10400
0*
06
0M
#10500
1*
16
1M
1~
0N
1O
1P
#10600
0*
06
0M
#10700
1*
16
1M
0~
1}
0P
0Q
1N
0O
1P
1Q
0R
1S
1T
1R
0S
0T
1U
0U
#10800
0*
06
0M
#10900
1*
16
1M
1~
0N
1O
0P
0Q
0R
1S
1T
1U
#11000
0*
06
0M
#11100
1*
16
1M
0~
0}
0|
1{
0T
0V
1R
0S
1P
1Q
1N
0O
0P
0R
1T
1V
0W
1X
0U
0Y
0[
1W
0X
1U
1Y
1[
1\
0\
#11200
0*
06
0M
#11300
1*
16
1M
1~
0N
1O
1P
#11400
0*
06
0M
#11500
1*
16
1M
0~
1}
0P
0Q
1N
0O
1P
1Q
1R
0R
#11600
0*
06
0M
#11700
1*
16
1M
1~
0N
1O
0P
0Q
1R
#11800
0*
06
0M
#11900
1*
16
1M
0~
0}
1|
0R
1S
1P
1Q
1N
0O
0P
1R
0S
0T
0V
0W
1X
0U
1T
1V
1W
0X
1U
0Y
0[
1\
1Y
1[
0\
#12000
0*
06
0M
#12100
1*
16
1M
1~
0N
1O
1P
#12200
0*
06
0M
#12300
1*
16
1M
0~
1}
0P
0Q
1N
0O
1P
1Q
0R
1S
0T
0V
1R
0S
1T
1V
0W
1X
0U
0Y
0[
1W
0X
1U
1Y
1[
1\
0\
#12400
0*
06
0M
#12500
1*
16
1M
1~
0N
1O
0P
0Q
0R
1S
0T
0V
0W
1X
0U
0Y
0[
1\
#12600
0*
06
0M
#12700
1*
16
1M
0~
0}
0|
0{
0z
0y
1x
0\
1]
1Y
1[
1W
0X
1T
1V
1R
0S
1P
1Q
1N
0O
0P
0R
0T
0W
1U
0Y
1\
0]
1^
1_
0^
0U
0_
#12800
0*
06
0M
#12900
1*
16
1M
1~
0N
1O
1P
#13000
0*
06
0M
#13100
1*
16
1M
0~
1}
0P
0Q
1N
0O
1P
1Q
1R
0R
#13200
0*
06
0M
#13300
1*
16
1M
1~
0N
1O
0P
0Q
1R
#13400
0*
06
0M
#13500
1*
16
1M
0~
0}
1|
0R
1S
1Z
1P
1Q
1N
0O
0P
1R
0S
1T
1U
0T
0U
#13600
0*
06
0M
#13700
1*
16
1M
1~
0N
1O
1P
#13800
0*
06
0M
#13900
1*
16
1M
0~
1}
0P
0Q
1N
0O
1P
1Q
0R
1S
1T
1R
0S
0T
1U
0U
#14000
0*
06
0M
#14100
1*
16
1M
1~
0N
1O
0P
0Q
0R
1S
1T
1U
#14200
0*
06
0M
#14300
1*
16
1M
0~
0}
0|
1{
0T
0V
1R
0S
0Z
1P
1Q
1N
0O
0P
0R
1T
1V
1W
0U
0W
1U
#14400
0*
06
0M
#14500
1*
16
1M
1~
0N
1O
1P
#14600
0*
06
0M
#14700
1*
16
1M
0~
1}
0P
0Q
1N
0O
1P
1Q
1R
0R
#14800
0*
06
0M
#14900
1*
16
1M
1~
0N
1O
0P
0Q
1R
#15000
0*
06
0M
#15100
1*
16
1M
0~
0}
1|
0R
1S
1P
1Q
1N
0O
0P
1R
0S
0T
0V
1W
0U
1T
1V
0W
1U
#15200
0*
06
0M
#15300
1*
16
1M
1~
0N
1O
1P
#15400
0*
06
0M
#15500
1*
16
1M
0~
1}
0P
0Q
1N
0O
1P
1Q
0R
1S
0T
0V
1R
0S
1T
1V
1W
0U
0W
1U
#15600
0*
06
0M
#15700
1*
16
1M
1~
0N
1O
0P
0Q
0R
1S
0T
0V
1W
0U
#15800
0*
06
0M
#15900
1*
16
1M
0~
0}
0|
0{
1z
0W
1X
1T
1V
1R
0S
1P
1Q
1N
0O
0P
0R
0T
1W
0X
1U
1Y
0Y
0U
#16000
0*
06
0M
#16100
1*
16
1M
1~
0N
1O
1P
#16200
0*
06
0M
#16300
1*
16
1M
0~
1}
0P
0Q
1N
0O
1P
1Q
1R
0R
#16400
0*
06
0M
#16500
1*
16
1M
1~
0N
1O
0P
0Q
1R
#16600
0*
06
0M
#16700
1*
16
1M
0~
0}
1|
0R
1S
1P
1Q
1N
0O
0P
1R
0S
1T
1U
0T
0U
#16800
0*
06
0M
#16900
1*
16
1M
1~
0N
1O
1P
#17000
0*
06
0M
#17100
1*
16
1M
0~
1}
0P
0Q
1N
0O
1P
1Q
0R
1S
1T
1R
0S
0T
1U
0U
#17200
0*
06
0M
#17300
1*
16
1M
1~
0N
1O
0P
0Q
0R
1S
1T
1U
#17400
0*
06
0M
#17500
1*
16
1M
0~
0}
0|
1{
0T
0V
1R
0S
1P
1Q
1N
0O
0P
0R
1T
1V
0W
1X
0U
1Y
1W
0X
1U
0Y
#17600
0*
06
0M
#17700
1*
16
1M
1~
0N
1O
1P
#17800
0*
06
0M
#17900
1*
16
1M
0~
1}
0P
0Q
1N
0O
1P
1Q
1R
0R
#18000
0*
06
0M
#18100
1*
16
1M
1~
0N
1O
0P
0Q
1R
#18200
0*
06
0M
#18300
1*
16
1M
0~
0}
1|
0R
1S
1P
1Q
1N
0O
0P
1R
0S
0T
0V
0W
1X
0U
1T
1V
1W
0X
1U
1Y
0Y
#18400
0*
06
0M
#18500
1*
16
1M
1~
0N
1O
1P
#18600
0*
06
0M
#18700
1*
16
1M
0~
1}
0P
0Q
1N
0O
1P
1Q
0R
1S
0T
0V
1R
0S
1T
1V
0W
1X
0U
1Y
1W
0X
1U
0Y
#18800
0*
06
0M
#18900
1*
16
1M
1~
0N
1O
0P
0Q
0R
1S
0T
0V
0W
1X
0U
1Y
#19000
0*
06
0M
#19100
1*
16
1M
0~
0}
0|
0{
0z
1y
0Y
0[
1W
0X
1T
1V
1R
0S
1P
1Q
1N
0O
0P
0R
0T
0W
1U
1Y
1[
0\
1]
1^
1\
0]
0U
0^
1_
0_
#19200
0*
06
0M
#19300
1*
16
1M
1~
0N
1O
1P
#19400
0*
06
0M
#19500
1*
16
1M
0~
1}
0P
0Q
1N
0O
1P
1Q
1R
0R
#19600
0*
06
0M
#19700
1*
16
1M
1~
0N
1O
0P
0Q
1R
#19800
0*
06
0M
#19900
1*
16
1M
0~
0}
1|
0R
1S
1P
1Q
1N
0O
0P
1R
0S
1T
1U
0T
0U
#20000
0*
06
0M
#20100
1*
16
1M
1~
0N
1O
1P
#20200
0*
06
0M
#20300
1*
16
1M
0~
1}
0P
0Q
1N
0O
1P
1Q
0R
1S
1T
1R
0S
0T
1U
0U
#20400
0*
06
0M
#20500
1*
16
1M
1~
0N
1O
0P
0Q
0R
1S
1T
1U
#20600
0*
06
0M
#20700
1*
16
1M
0~
0}
0|
1{
0T
0V
1R
0S
1P
1Q
1N
0O
0P
0R
1T
1V
1W
0U
0W
1U
#20800
0*
06
0M
#20900
1*
16
1M
1~
0N
1O
1P
#21000
0*
06
0M
#21100
1*
16
1M
0~
1}
0P
0Q
1N
0O
1P
1Q
1R
0R
#21200
0*
06
0M
#21300
1*
16
1M
1~
0N
1O
0P
0Q
1R
#21400
0*
06
0M
#21500
1*
16
1M
0~
0}
1|
0R
1S
1P
1Q
1N
0O
0P
1R
0S
0T
0V
1W
0U
1T
1V
0W
1U
#21600
0*
06
0M
#21700
1*
16
1M
1~
0N
1O
1P
#21800
0*
06
0M
#21900
1*
16
1M
0~
1}
0P
0Q
1N
0O
1P
1Q
0R
1S
0T
0V
1R
0S
1T
1V
1W
0U
0W
1U
#22000
0*
06
0M
#22100
1*
16
1M
1~
0N
1O
0P
0Q
0R
1S
0T
0V
1W
0U
#22200
0*
06
0M
#22300
1*
16
1M
0~
0}
0|
0{
1z
0W
1X
1T
1V
1R
0S
1P
1Q
1N
0O
0P
0R
0T
1W
0X
1U
0Y
0[
0\
1]
1Y
1[
0U
1\
0]
1^
1_
0^
0_
#22400
0*
06
0M
#22500
1*
16
1M
1~
0N
1O
1P
#22600
0*
06
0M
#22700
1*
16
1M
0~
1}
0P
0Q
1N
0O
1P
1Q
1R
0R
#22800
0*
06
0M
#22900
1*
16
1M
1~
0N
1O
0P
0Q
1R
#23000
0*
06
0M
#23100
1*
16
1M
0~
0}
1|
0R
1S
1P
1Q
1N
0O
0P
1R
0S
1T
1U
0T
0U
#23200
0*
06
0M
#23300
1*
16
1M
1~
0N
1O
1P
#23400
0*
06
0M
#23500
1*
16
1M
0~
1}
0P
0Q
1N
0O
1P
1Q
0R
1S
1T
1R
0S
0T
1U
0U
#23600
0*
06
0M
#23700
1*
16
1M
1~
0N
1O
0P
0Q
0R
1S
1T
1U
#23800
0*
06
0M
#23900
1*
16
1M
0~
0}
0|
1{
0T
0V
1R
0S
1P
1Q
1N
0O
0P
0R
1T
1V
0W
1X
0U
0Y
0[
1W
0X
1U
1Y
1[
0\
1]
1^
1\
0]
0^
1_
0_
#24000
0*
06
0M
#24100
1*
16
1M
1~
0N
1O
1P
#24200
0*
06
0M
#24300
1*
16
1M
0~
1}
0P
0Q
1N
0O
1P
1Q
1R
0R
#24400
0*
06
0M
#24500
1*
16
1M
1~
0N
1O
0P
0Q
1R
#24600
0*
06
0M
#24700
1*
16
1M
0~
0}
1|
0R
1S
1P
1Q
1N
0O
0P
1R
0S
0T
0V
0W
1X
0U
1T
1V
1W
0X
1U
0Y
0[
0\
1]
1Y
1[
1\
0]
1^
1_
0^
0_
#24800
0*
06
0M
#24900
1*
16
1M
1~
0N
1O
1P
#25000
0*
06
0M
#25100
1*
16
1M
0~
1}
0P
0Q
1N
0O
1P
1Q
0R
1S
0T
0V
1R
0S
1T
1V
0W
1X
0U
0Y
0[
1W
0X
1U
1Y
1[
0\
1]
1^
1\
0]
0^
1_
0_
#25200
0*
06
0M
#25300
1*
16
1M
1~
0N
1O
0P
0Q
0R
1S
0T
0V
0W
1X
0U
0Y
0[
0\
1]
1^
1_
#25400
0*
06
0M
#25500
1*
16
1M
0~
0}
0|
0{
0z
0y
0x
1w
0^
0a
1\
0]
1Y
1[
1W
0X
1T
1V
1R
0S
1P
1Q
1N
0O
0P
0R
0T
0W
1U
0Y
0\
1^
1a
1b
0_
1c
0b
1_
0U
0c
#25600
0*
06
0M
#25700
1*
16
1M
1~
0N
1O
1P
#25800
0*
06
0M
#25900
1*
16
1M
0~
1}
0P
0Q
1N
0O
1P
1Q
1R
0R
#26000
0*
06
0M
#26100
1*
16
1M
1~
0N
1O
1`
0P
0Q
1R
#26200
0*
06
0M
#26300
1*
16
1M
0~
0}
1|
0R
1S
1Z
1P
1Q
1N
0O
0`
0P
1R
0S
1T
1U
0T
0U
#26400
0*
06
0M
#26500
1*
16
1M
1~
0N
1O
1P
#26600
0*
06
0M
#26700
1*
16
1M
0~
1}
0P
0Q
1N
0O
1P
1Q
0R
1S
1T
1R
0S
0T
1U
0U
#26800
0*
06
0M
#26900
1*
16
1M
1~
0N
1O
1`
0P
0Q
0R
1S
1T
1U
#27000
0*
06
0M
#27100
1*
16
1M
0~
0}
0|
1{
0T
0V
1R
0S
0Z
1P
1Q
1N
0O
0`
0P
0R
1T
1V
1W
0U
0W
1U
#27200
0*
06
0M
#27300
1*
16
1M
1~
0N
1O
1P
#27400
0*
06
0M
#27500
1*
16
1M
0~
1}
0P
0Q
1N
0O
1P
1Q
1R
0R
#27600
0*
06
0M
#27700
1*
16
1M
1~
0N
1O
1`
0P
0Q
1R
#27800
0*
06
0M
#27900
1*
16
1M
0~
0}
1|
0R
1S
1P
1Q
1N
0O
0`
0P
1R
0S
0T
0V
1W
0U
1T
1V
0W
1U
#28000
0*
06
0M
#28100
1*
16
1M
1~
0N
1O
1P
#28200
0*
06
0M
#28300
1*
16
1M
0~
1}
0P
0Q
1N
0O
1P
1Q
0R
1S
0T
0V
1R
0S
1T
1V
1W
0U
0W
1U
#28400
0*
06
0M
#28500
1*
16
1M
1~
0N
1O
1`
0P
0Q
0R
1S
0T
0V
1W
0U
#28600
0*
06
0M
#28700
1*
16
1M
0~
0}
0|
0{
1z
0W
1X
1T
1V
1R
0S
1P
1Q
1N
0O
0`
0P
0R
0T
1W
0X
1U
1Y
0Y
0U
#28800
0*
06
0M
#28900
1*
16
1M
1~
0N
1O
1P
#29000
0*
06
0M
#29100
1*
16
1M
0~
1}
0P
0Q
1N
0O
1P
1Q
1R
0R
#29200
0*
06
0M
#29300
1*
16
1M
1~
0N
1O
1`
0P
0Q
1R
#29400
0*
06
0M
#29500
1*
16
1M
0~
0}
1|
0R
1S
1P
1Q
1N
0O
0`
0P
1R
0S
1T
1U
0T
0U
#29600
0*
06
0M
#29700
1*
16
1M
1~
0N
1O
1P
#29800
0*
06
0M
#29900
1*
16
1M
0~
1}
0P
0Q
1N
0O
1P
1Q
0R
1S
1T
1R
0S
0T
1U
0U
#30000
0*
06
0M
#30100
1*
16
1M
1~
0N
1O
1`
0P
0Q
0R
1S
1T
1U
#30200
0*
06
0M
#30300
1*
16
1M
0~
0}
0|
1{
0T
0V
1R
0S
1P
1Q
1N
0O
0`
0P
0R
1T
1V
0W
1X
0U
1Y
1W
0X
1U
0Y
#30400
0*
06
0M
#30500
1*
16
1M
1~
0N
1O
1P
#30600
0*
06
0M
#30700
1*
16
1M
0~
1}
0P
0Q
1N
0O
1P
1Q
1R
0R
#30800
0*
06
0M
#30900
1*
16
1M
1~
0N
1O
1`
0P
0Q
1R
#31000
0*
06
0M
#31100
1*
16
1M
0~
0}
1|
0R
1S
1P
1Q
1N
0O
0`
0P
1R
0S
0T
0V
0W
1X
0U
1T
1V
1W
0X
1U
1Y
0Y
#31200
0*
06
0M
#31300
1*
16
1M
1~
0N
1O
1P
#31400
0*
06
0M
#31500
1*
16
1M
0~
1}
0P
0Q
1N
0O
1P
1Q
0R
1S
0T
0V
1R
0S
1T
1V
0W
1X
0U
1Y
1W
0X
1U
0Y
#31600
0*
06
0M
#31700
1*
16
1M
1~
0N
1O
1`
0P
0Q
0R
1S
0T
0V
0W
1X
0U
1Y
#31800
0*
06
0M
#31900
1*
16
1M
0~
0}
0|
0{
0z
1y
0Y
0[
1W
0X
1T
1V
1R
0S
1P
1Q
1N
0O
0`
0P
0R
0T
0W
1U
1Y
1[
1\
0\
0U
#32000
0*
06
0M
#32100
1*
16
1M
1~
0N
1O
1P
#32200
0*
06
0M
#32300
1*
16
1M
0~
1}
0P
0Q
1N
0O
1P
1Q
1R
0R
#32400
0*
06
0M
#32500
1*
16
1M
1~
0N
1O
1`
0P
0Q
1R
#32600
0*
06
0M
#32700
1*
16
1M
0~
0}
1|
0R
1S
1P
1Q
1N
0O
0`
0P
1R
0S
1T
1U
0T
0U
#32800
0*
06
0M
#32900
1*
16
1M
1~
0N
1O
1P
#33000
0*
06
0M
#33100
1*
16
1M
0~
1}
0P
0Q
1N
0O
1P
1Q
0R
1S
1T
1R
0S
0T
1U
0U
#33200
0*
06
0M
#33300
1*
16
1M
1~
0N
1O
1`
0P
0Q
0R
1S
1T
1U
#33400
0*
06
0M
#33500
1*
16
1M
0~
0}
0|
1{
0T
0V
1R
0S
1P
1Q
1N
0O
0`
0P
0R
1T
1V
1W
0U
0W
1U
#33600
0*
06
0M
#33700
1*
16
1M
1~
0N
1O
1P
#33800
0*
06
0M
#33900
1*
16
1M
0~
1}
0P
0Q
1N
0O
1P
1Q
1R
0R
#34000
0*
06
0M
#34100
1*
16
1M
1~
0N
1O
1`
0P
0Q
1R
#34200
0*
06
0M
#34300
1*
16
1M
0~
0}
1|
0R
1S
1P
1Q
1N
0O
0`
0P
1R
0S
0T
0V
1W
0U
1T
1V
0W
1U
#34400
0*
06
0M
#34500
1*
16
1M
1~
0N
1O
1P
#34600
0*
06
0M
#34700
1*
16
1M
0~
1}
0P
0Q
1N
0O
1P
1Q
0R
1S
0T
0V
1R
0S
1T
1V
1W
0U
0W
1U
#34800
0*
06
0M
#34900
1*
16
1M
1~
0N
1O
1`
0P
0Q
0R
1S
0T
0V
1W
0U
#35000
0*
06
0M
#35100
1*
16
1M
0~
0}
0|
0{
1z
0W
1X
1T
1V
1R
0S
1P
1Q
1N
0O
0`
0P
0R
0T
1W
0X
1U
0Y
0[
1\
1Y
1[
0U
0\
#35200
0*
06
0M
#35300
1*
16
1M
1~
0N
1O
1P
#35400
0*
06
0M
#35500
1*
16
1M
0~
1}
0P
0Q
1N
0O
1P
1Q
1R
0R
#35600
0*
06
0M
#35700
1*
16
1M
1~
0N
1O
1`
0P
0Q
1R
#35800
0*
06
0M
#35900
1*
16
1M
0~
0}
1|
0R
1S
1P
1Q
1N
0O
0`
0P
1R
0S
1T
1U
0T
0U
#36000
0*
06
0M
#36100
1*
16
1M
1~
0N
1O
1P
#36200
0*
06
0M
#36300
1*
16
1M
0~
1}
0P
0Q
1N
0O
1P
1Q
0R
1S
1T
1R
0S
0T
1U
0U
#36400
0*
06
0M
#36500
1*
16
1M
1~
0N
1O
1`
0P
0Q
0R
1S
1T
1U
#36600
0*
06
0M
#36700
1*
16
1M
0~
0}
0|
1{
0T
0V
1R
0S
1P
1Q
1N
0O
0`
0P
0R
1T
1V
0W
1X
0U
0Y
0[
1W
0X
1U
1Y
1[
1\
0\
#36800
0*
06
0M
#36900
1*
16
1M
1~
0N
1O
1P
#37000
0*
06
0M
#37100
1*
16
1M
0~
1}
0P
0Q
1N
0O
1P
1Q
1R
0R
#37200
0*
06
0M
#37300
1*
16
1M
1~
0N
1O
1`
0P
0Q
1R
#37400
0*
06
0M
#37500
1*
16
1M
0~
0}
1|
0R
1S
1P
1Q
1N
0O
0`
0P
1R
0S
0T
0V
0W
1X
0U
1T
1V
1W
0X
1U
0Y
0[
1\
1Y
1[
0\
#37600
0*
06
0M
#37700
1*
16
1M
1~
0N
1O
1P
#37800
0*
06
0M
#37900
1*
16
1M
0~
1}
0P
0Q
1N
0O
1P
1Q
0R
1S
0T
0V
1R
0S
1T
1V
0W
1X
0U
0Y
0[
1W
0X
1U
1Y
1[
1\
0\
#38000
0*
06
0M
#38100
1*
16
1M
1~
0N
1O
1`
0P
0Q
0R
1S
0T
0V
0W
1X
0U
0Y
0[
1\
#38200
0*
06
0M
#38300
1*
16
1M
0~
0}
0|
0{
0z
0y
1x
0\
1]
1Y
1[
1W
0X
1T
1V
1R
0S
1P
1Q
1N
0O
0`
0P
0R
0T
0W
1U
0Y
1\
0]
0^
0a
1b
0_
1^
1a
0U
0b
1_
1c
0c
#38400
0*
06
0M
#38500
1*
16
1M
1~
0N
1O
1P
#38600
0*
06
0M
#38700
1*
16
1M
0~
1}
0P
0Q
1N
0O
1P
1Q
1R
0R
#38800
0*
06
0M
#38900
1*
16
1M
1~
0N
1O
0P
0Q
1R
#39000
0*
06
0M
#39100
1*
16
1M
0~
0}
1|
0R
1S
1Z
1P
1Q
1N
0O
0P
1R
0S
1T
1U
0T
0U
#39200
0*
06
0M
#39300
1*
16
1M
1~
0N
1O
1P
#39400
0*
06
0M
#39500
1*
16
1M
0~
1}
0P
0Q
1N
0O
1P
1Q
0R
1S
1T
1R
0S
0T
1U
0U
#39600
0*
06
0M
#39700
1*
16
1M
1~
0N
1O
0P
0Q
0R
1S
1T
1U
#39800
0*
06
0M
#39900
1*
16
1M
0~
0}
0|
1{
0T
0V
1R
0S
0Z
1P
1Q
1N
0O
0P
0R
1T
1V
1W
0U
0W
1U
