clase 3/first_register/simulation/qsim/register_D.msim.vcd
$comment
	File created using the following command:
		vcd file register_D.msim.vcd -direction
$end
$date
	Mon Jan 10 15:37:37 2022
$end
$version
	ModelSim Version 2020.1
$end
$timescale
	1ps
$end

$scope module register_d_vhd_vec_tst $end
$var wire 1 ! datos_entrada [3] $end
$var wire 1 " datos_entrada [2] $end
$var wire 1 # datos_entrada [1] $end
$var wire 1 $ datos_entrada [0] $end
$var wire 1 % datos_salida [3] $end
$var wire 1 & datos_salida [2] $end
$var wire 1 ' datos_salida [1] $end
$var wire 1 ( datos_salida [0] $end
$var wire 1 ) entrada_reloj $end

$scope module i1 $end
$var wire 1 * gnd $end
$var wire 1 + vcc $end
$var wire 1 , unknown $end
$var wire 1 - devoe $end
$var wire 1 . devclrn $end
$var wire 1 / devpor $end
$var wire 1 0 ww_devoe $end
$var wire 1 1 ww_devclrn $end
$var wire 1 2 ww_devpor $end
$var wire 1 3 ww_entrada_reloj $end
$var wire 1 4 ww_datos_entrada [3] $end
$var wire 1 5 ww_datos_entrada [2] $end
$var wire 1 6 ww_datos_entrada [1] $end
$var wire 1 7 ww_datos_entrada [0] $end
$var wire 1 8 ww_datos_salida [3] $end
$var wire 1 9 ww_datos_salida [2] $end
$var wire 1 : ww_datos_salida [1] $end
$var wire 1 ; ww_datos_salida [0] $end
$var wire 1 < \datos_salida[0]~output_o\ $end
$var wire 1 = \datos_salida[1]~output_o\ $end
$var wire 1 > \datos_salida[2]~output_o\ $end
$var wire 1 ? \datos_salida[3]~output_o\ $end
$var wire 1 @ \entrada_reloj~input_o\ $end
$var wire 1 A \datos_entrada[0]~input_o\ $end
$var wire 1 B \datos_salida[0]~reg0_q\ $end
$var wire 1 C \datos_entrada[1]~input_o\ $end
$var wire 1 D \datos_salida[1]~reg0_q\ $end
$var wire 1 E \datos_entrada[2]~input_o\ $end
$var wire 1 F \datos_salida[2]~reg0_q\ $end
$var wire 1 G \datos_entrada[3]~input_o\ $end
$var wire 1 H \datos_salida[3]~reg0_q\ $end
$upscope $end
$upscope $end
$enddefinitions $end
#0
$dumpvars
0)
0*
1+
x,
1-
1.
1/
10
11
12
03
0<
0=
0>
0?
0@
0A
0B
0C
0D
0E
0F
0G
0H
0!
0"
0#
0$
04
05
06
07
08
09
0:
0;
0%
0&
0'
0(
$end
#5000
1)
13
1@
#10000
0)
1$
03
17
1A
0@
#15000
1)
13
1@
1B
1<
1;
1(
#20000
0)
0$
1#
03
07
16
1C
0A
0@
#25000
1)
13
1@
0B
1D
1=
0<
1:
0;
0(
1'
#30000
0)
1$
03
17
1A
0@
#35000
1)
13
1@
1B
1<
1;
1(
#40000
0)
0$
0#
1"
03
07
06
15
1E
0C
0A
0@
#45000
1)
13
1@
0B
0D
1F
1>
0=
0<
19
0:
0;
0(
0'
1&
#50000
0)
1$
03
17
1A
0@
#55000
1)
13
1@
1B
1<
1;
1(
#60000
0)
0$
1#
03
07
16
1C
0A
0@
#65000
1)
13
1@
0B
1D
1=
0<
1:
0;
0(
1'
#70000
0)
1$
03
17
1A
0@
#75000
1)
13
1@
1B
1<
1;
1(
#80000
0)
0$
0#
0"
1!
03
07
06
05
14
1G
0E
0C
0A
0@
#85000
1)
13
1@
0B
0D
0F
1H
1?
0>
0=
0<
18
09
0:
0;
0(
0'
0&
1%
#90000
0)
1$
03
17
1A
0@
#95000
1)
13
1@
1B
1<
1;
1(
#100000
0)
0$
1#
03
07
16
1C
0A
0@
#105000
1)
13
1@
0B
1D
1=
0<
1:
0;
0(
1'
#110000
0)
1$
03
17
1A
0@
#115000
1)
13
1@
1B
1<
1;
1(
#120000
0)
0$
0#
1"
03
07
06
15
1E
0C
0A
0@
#125000
1)
13
1@
0B
0D
1F
1>
0=
0<
19
0:
0;
0(
0'
1&
#130000
0)
1$
03
17
1A
0@
#135000
1)
13
1@
1B
1<
1;
1(
#140000
0)
0$
1#
03
07
16
1C
0A
0@
#145000
1)
13
1@
0B
1D
1=
0<
1:
0;
0(
1'
#150000
0)
1$
03
17
1A
0@
#155000
1)
13
1@
1B
1<
1;
1(
#160000
0)
0$
0#
0"
0!
03
07
06
05
04
0G
0E
0C
0A
0@
#165000
1)
13
1@
0B
0D
0F
0H
0?
0>
0=
0<
08
09
0:
0;
0(
0'
0&
0%
#170000
0)
1$
03
17
1A
0@
#175000
1)
13
1@
1B
1<
1;
1(
#180000
0)
0$
1#
03
07
16
1C
0A
0@
#185000
1)
13
1@
0B
1D
1=
0<
1:
0;
0(
1'
#190000
0)
1$
03
17
1A
0@
#195000
1)
13
1@
1B
1<
1;
1(
#200000
0)
0$
0#
1"
03
07
06
15
1E
0C
0A
0@
#205000
1)
13
1@
0B
0D
1F
1>
0=
0<
19
0:
0;
0(
0'
1&
#210000
0)
1$
03
17
1A
0@
#215000
1)
13
1@
1B
1<
1;
1(
#220000
0)
0$
1#
03
07
16
1C
0A
0@
#225000
1)
13
1@
0B
1D
1=
0<
1:
0;
0(
1'
#230000
0)
1$
03
17
1A
0@
#235000
1)
13
1@
1B
1<
1;
1(
#240000
0)
0$
0#
0"
1!
03
07
06
05
14
1G
0E
0C
0A
0@
#245000
1)
13
1@
0B
0D
0F
1H
1?
0>
0=
0<
18
09
0:
0;
0(
0'
0&
1%
#250000
0)
1$
03
17
1A
0@
#255000
1)
13
1@
1B
1<
1;
1(
#260000
0)
0$
1#
03
07
16
1C
0A
0@
#265000
1)
13
1@
0B
1D
1=
0<
1:
0;
0(
1'
#270000
0)
1$
03
17
1A
0@
#275000
1)
13
1@
1B
1<
1;
1(
#280000
0)
0$
0#
1"
03
07
06
15
1E
0C
0A
0@
#285000
1)
13
1@
0B
0D
1F
1>
0=
0<
19
0:
0;
0(
0'
1&
#290000
0)
1$
03
17
1A
0@
#295000
1)
13
1@
1B
1<
1;
1(
#300000
0)
0$
1#
03
07
16
1C
0A
0@
#305000
1)
13
1@
0B
1D
1=
0<
1:
0;
0(
1'
#310000
0)
1$
03
17
1A
0@
#315000
1)
13
1@
1B
1<
1;
1(
#320000
0)
0$
0#
0"
0!
03
07
06
05
04
0G
0E
0C
0A
0@
#325000
1)
13
1@
0B
0D
0F
0H
0?
0>
0=
0<
08
09
0:
0;
0(
0'
0&
0%
#330000
0)
1$
03
17
1A
0@
#335000
1)
13
1@
1B
1<
1;
1(
#340000
0)
0$
1#
03
07
16
1C
0A
0@
#345000
1)
13
1@
0B
1D
1=
0<
1:
0;
0(
1'
#350000
0)
1$
03
17
1A
0@
#355000
1)
13
1@
1B
1<
1;
1(
#360000
0)
0$
0#
1"
03
07
06
15
1E
0C
0A
0@
#365000
1)
13
1@
0B
0D
1F
1>
0=
0<
19
0:
0;
0(
0'
1&
#370000
0)
1$
03
17
1A
0@
#375000
1)
13
1@
1B
1<
1;
1(
#380000
0)
0$
1#
03
07
16
1C
0A
0@
#385000
1)
13
1@
0B
1D
1=
0<
1:
0;
0(
1'
#390000
0)
1$
03
17
1A
0@
#395000
1)
13
1@
1B
1<
1;
1(
#400000
0)
0$
0#
0"
1!
03
07
06
05
14
1G
0E
0C
0A
0@
#405000
1)
13
1@
0B
0D
0F
1H
1?
0>
0=
0<
18
09
0:
0;
0(
0'
0&
1%
#410000
0)
1$
03
17
1A
0@
#415000
1)
13
1@
1B
1<
1;
1(
#420000
0)
0$
1#
03
07
16
1C
0A
0@
#425000
1)
13
1@
0B
1D
1=
0<
1:
0;
0(
1'
#430000
0)
1$
03
17
1A
0@
#435000
1)
13
1@
1B
1<
1;
1(
#440000
0)
0$
0#
1"
03
07
06
15
1E
0C
0A
0@
#445000
1)
13
1@
0B
0D
1F
1>
0=
0<
19
0:
0;
0(
0'
1&
#450000
0)
1$
03
17
1A
0@
#455000
1)
13
1@
1B
1<
1;
1(
#460000
0)
0$
1#
03
07
16
1C
0A
0@
#465000
1)
13
1@
0B
1D
1=
0<
1:
0;
0(
1'
#470000
0)
1$
03
17
1A
0@
#475000
1)
13
1@
1B
1<
1;
1(
#480000
0)
0$
0#
0"
0!
03
07
06
05
04
0G
0E
0C
0A
0@
#485000
1)
13
1@
0B
0D
0F
0H
0?
0>
0=
0<
08
09
0:
0;
0(
0'
0&
0%
#490000
0)
1$
03
17
1A
0@
#495000
1)
13
1@
1B
1<
1;
1(
#500000
0)
0$
1#
03
07
16
1C
0A
0@
#505000
1)
13
1@
0B
1D
1=
0<
1:
0;
0(
1'
#510000
0)
1$
03
17
1A
0@
#515000
1)
13
1@
1B
1<
1;
1(
#520000
0)
0$
0#
1"
03
07
06
15
1E
0C
0A
0@
#525000
1)
13
1@
0B
0D
1F
1>
0=
0<
19
0:
0;
0(
0'
1&
#530000
0)
1$
03
17
1A
0@
#535000
1)
13
1@
1B
1<
1;
1(
#540000
0)
0$
1#
03
07
16
1C
0A
0@
#545000
1)
13
1@
0B
1D
1=
0<
1:
0;
0(
1'
#550000
0)
1$
03
17
1A
0@
#555000
1)
13
1@
1B
1<
1;
1(
#560000
0)
0$
0#
0"
1!
03
07
06
05
14
1G
0E
0C
0A
0@
#565000
1)
13
1@
0B
0D
0F
1H
1?
0>
0=
0<
18
09
0:
0;
0(
0'
0&
1%
#570000
0)
1$
03
17
1A
0@
#575000
1)
13
1@
1B
1<
1;
1(
#580000
0)
0$
1#
03
07
16
1C
0A
0@
#585000
1)
13
1@
0B
1D
1=
0<
1:
0;
0(
1'
#590000
0)
1$
03
17
1A
0@
#595000
1)
13
1@
1B
1<
1;
1(
#600000
0)
0$
0#
1"
03
07
06
15
1E
0C
0A
0@
#605000
1)
13
1@
0B
0D
1F
1>
0=
0<
19
0:
0;
0(
0'
1&
#610000
0)
1$
03
17
1A
0@
#615000
1)
13
1@
1B
1<
1;
1(
#620000
0)
0$
1#
03
07
16
1C
0A
0@
#625000
1)
13
1@
0B
1D
1=
0<
1:
0;
0(
1'
#630000
0)
1$
03
17
1A
0@
#635000
1)
13
1@
1B
1<
1;
1(
#640000
0)
0$
0#
0"
0!
03
07
06
05
04
0G
0E
0C
0A
0@
#645000
1)
13
1@
0B
0D
0F
0H
0?
0>
0=
0<
08
09
0:
0;
0(
0'
0&
0%
#650000
0)
1$
03
17
1A
0@
#655000
1)
13
1@
1B
1<
1;
1(
#660000
0)
0$
1#
03
07
16
1C
0A
0@
#665000
1)
13
1@
0B
1D
1=
0<
1:
0;
0(
1'
#670000
0)
1$
03
17
1A
0@
#675000
1)
13
1@
1B
1<
1;
1(
#680000
0)
0$
0#
1"
03
07
06
15
1E
0C
0A
0@
#685000
1)
13
1@
0B
0D
1F
1>
0=
0<
19
0:
0;
0(
0'
1&
#690000
0)
1$
03
17
1A
0@
#695000
1)
13
1@
1B
1<
1;
1(
#700000
0)
0$
1#
03
07
16
1C
0A
0@
#705000
1)
13
1@
0B
1D
1=
0<
1:
0;
0(
1'
#710000
0)
1$
03
17
1A
0@
#715000
1)
13
1@
1B
1<
1;
1(
#720000
0)
0$
0#
0"
1!
03
07
06
05
14
1G
0E
0C
0A
0@
#725000
1)
13
1@
0B
0D
0F
1H
1?
0>
0=
0<
18
09
0:
0;
0(
0'
0&
1%
#730000
0)
1$
03
17
1A
0@
#735000
1)
13
1@
1B
1<
1;
1(
#740000
0)
0$
1#
03
07
16
1C
0A
0@
#745000
1)
13
1@
0B
1D
1=
0<
1:
0;
0(
1'
#750000
0)
1$
03
17
1A
0@
#755000
1)
13
1@
1B
1<
1;
1(
#760000
0)
0$
0#
1"
03
07
06
15
1E
0C
0A
0@
#765000
1)
13
1@
0B
0D
1F
1>
0=
0<
19
0:
0;
0(
0'
1&
#770000
0)
1$
03
17
1A
0@
#775000
1)
13
1@
1B
1<
1;
1(
#780000
0)
0$
1#
03
07
16
1C
0A
0@
#785000
1)
13
1@
0B
1D
1=
0<
1:
0;
0(
1'
#790000
0)
1$
03
17
1A
0@
#795000
1)
13
1@
1B
1<
1;
1(
#800000
0)
0$
0#
0"
0!
03
07
06
05
04
0G
0E
0C
0A
0@
#805000
1)
13
1@
0B
0D
0F
0H
0?
0>
0=
0<
08
09
0:
0;
0(
0'
0&
0%
#810000
0)
1$
03
17
1A
0@
#815000
1)
13
1@
1B
1<
1;
1(
#820000
0)
0$
1#
03
07
16
1C
0A
0@
#825000
1)
13
1@
0B
1D
1=
0<
1:
0;
0(
1'
#830000
0)
1$
03
17
1A
0@
#835000
1)
13
1@
1B
1<
1;
1(
#840000
0)
0$
0#
1"
03
07
06
15
1E
0C
0A
0@
#845000
1)
13
1@
0B
0D
1F
1>
0=
0<
19
0:
0;
0(
0'
1&
#850000
0)
1$
03
17
1A
0@
#855000
1)
13
1@
1B
1<
1;
1(
#860000
0)
0$
1#
03
07
16
1C
0A
0@
#865000
1)
13
1@
0B
1D
1=
0<
1:
0;
0(
1'
#870000
0)
1$
03
17
1A
0@
#875000
1)
13
1@
1B
1<
1;
1(
#880000
0)
0$
0#
0"
1!
03
07
06
05
14
1G
0E
0C
0A
0@
#885000
1)
13
1@
0B
0D
0F
1H
1?
0>
0=
0<
18
09
0:
0;
0(
0'
0&
1%
#890000
0)
1$
03
17
1A
0@
#895000
1)
13
1@
1B
1<
1;
1(
#900000
0)
0$
1#
03
07
16
1C
0A
0@
#905000
1)
13
1@
0B
1D
1=
0<
1:
0;
0(
1'
#910000
0)
1$
03
17
1A
0@
#915000
1)
13
1@
1B
1<
1;
1(
#920000
0)
0$
0#
1"
03
07
06
15
1E
0C
0A
0@
#925000
1)
13
1@
0B
0D
1F
1>
0=
0<
19
0:
0;
0(
0'
1&
#930000
0)
1$
03
17
1A
0@
#935000
1)
13
1@
1B
1<
1;
1(
#940000
0)
0$
1#
03
07
16
1C
0A
0@
#945000
1)
13
1@
0B
1D
1=
0<
1:
0;
0(
1'
#950000
0)
1$
03
17
1A
0@
#955000
1)
13
1@
1B
1<
1;
1(
#960000
0)
0$
0#
0"
0!
03
07
06
05
04
0G
0E
0C
0A
0@
#965000
1)
13
1@
0B
0D
0F
0H
0?
0>
0=
0<
08
09
0:
0;
0(
0'
0&
0%
#970000
0)
1$
03
17
1A
0@
#975000
1)
13
1@
1B
1<
1;
1(
#980000
0)
0$
1#
03
07
16
1C
0A
0@
#985000
1)
13
1@
0B
1D
1=
0<
1:
0;
0(
1'
#990000
0)
1$
03
17
1A
0@
#995000
1)
13
1@
1B
1<
1;
1(
