clase 2/decoder_1_3to8_vectores/simulation/qsim/decoder_vector_3_8.msim.vcd
$comment
	File created using the following command:
		vcd file decoder_vector_3_8.msim.vcd -direction
$end
$date
	Thu Jan 06 14:31:37 2022
$end
$version
	ModelSim Version 2020.1
$end
$timescale
	1ps
$end

$scope module decoder_vector_3_8_vhd_vec_tst $end
$var wire 1 ! ints [2] $end
$var wire 1 " ints [1] $end
$var wire 1 # ints [0] $end
$var wire 1 $ outs [7] $end
$var wire 1 % outs [6] $end
$var wire 1 & outs [5] $end
$var wire 1 ' outs [4] $end
$var wire 1 ( outs [3] $end
$var wire 1 ) outs [2] $end
$var wire 1 * outs [1] $end
$var wire 1 + outs [0] $end

$scope module i1 $end
$var wire 1 , gnd $end
$var wire 1 - vcc $end
$var wire 1 . unknown $end
$var wire 1 / devoe $end
$var wire 1 0 devclrn $end
$var wire 1 1 devpor $end
$var wire 1 2 ww_devoe $end
$var wire 1 3 ww_devclrn $end
$var wire 1 4 ww_devpor $end
$var wire 1 5 ww_ints [2] $end
$var wire 1 6 ww_ints [1] $end
$var wire 1 7 ww_ints [0] $end
$var wire 1 8 ww_outs [7] $end
$var wire 1 9 ww_outs [6] $end
$var wire 1 : ww_outs [5] $end
$var wire 1 ; ww_outs [4] $end
$var wire 1 < ww_outs [3] $end
$var wire 1 = ww_outs [2] $end
$var wire 1 > ww_outs [1] $end
$var wire 1 ? ww_outs [0] $end
$var wire 1 @ \outs[0]~output_o\ $end
$var wire 1 A \outs[1]~output_o\ $end
$var wire 1 B \outs[2]~output_o\ $end
$var wire 1 C \outs[3]~output_o\ $end
$var wire 1 D \outs[4]~output_o\ $end
$var wire 1 E \outs[5]~output_o\ $end
$var wire 1 F \outs[6]~output_o\ $end
$var wire 1 G \outs[7]~output_o\ $end
$var wire 1 H \ints[2]~input_o\ $end
$var wire 1 I \ints[1]~input_o\ $end
$var wire 1 J \ints[0]~input_o\ $end
$var wire 1 K \Equal7~0_combout\ $end
$var wire 1 L \Equal7~1_combout\ $end
$var wire 1 M \Equal7~2_combout\ $end
$var wire 1 N \Equal7~3_combout\ $end
$var wire 1 O \Equal7~4_combout\ $end
$var wire 1 P \outs[5]~0_combout\ $end
$var wire 1 Q \Equal7~5_combout\ $end
$var wire 1 R \outs[7]~1_combout\ $end
$var wire 1 S \ALT_INV_outs[7]~1_combout\ $end
$upscope $end
$upscope $end
$enddefinitions $end
#0
$dumpvars
0,
1-
x.
1/
10
11
12
13
14
0@
0A
0B
0C
0D
0E
0F
0G
xH
xI
xJ
xK
xL
xM
xN
xO
xP
xQ
xR
xS
0!
0"
0#
0$
0%
0&
0'
0(
0)
0*
0+
05
06
07
08
09
0:
0;
0<
0=
0>
0?
$end
#811
0H
0I
0J
#3793
xG
x8
x$
#3850
xD
x;
x'
#3860
xB
x=
x)
#4151
xC
x<
x(
#4167
xA
x>
x*
#4252
x@
x?
x+
#4817
0P
#4822
0N
#4824
0L
#4842
1R
0S
#4991
0Q
#4994
0M
#5180
0O
#5209
1K
#5742
xE
x:
x&
#6085
xF
x9
x%
#8687
0G
08
0$
#8715
0B
0=
0)
#8837
0C
0<
0(
#8852
0A
0>
0*
#8894
0D
0;
0'
#9461
1@
1?
1+
#10261
0E
0:
0&
#10992
0F
09
0%
#50000
1#
17
#50764
1J
#54574
0K
#54598
1L
#58677
0@
0?
0+
#58765
1A
1>
1*
#100000
0#
1"
07
16
#100764
1I
#100811
0J
#104740
0L
#104749
1N
#104822
0N
#104835
1M
#108695
1B
1=
1)
#108768
0A
0>
0*
#150000
1#
17
#150764
1J
#154567
0M
#154597
1N
#158288
0B
0=
0)
#158748
1C
1<
1(
#200000
0#
0"
1!
07
06
15
#200764
1H
#200811
0I
0J
#204822
0N
#204842
1Q
#204991
0Q
#205003
1O
#208837
0C
0<
0(
#208853
1D
1;
1'
#250000
1#
17
#250764
1J
#254568
0O
#254592
1P
#258282
0D
0;
0'
#260334
1E
1:
1&
#300000
0#
1"
07
16
#300764
1I
#300811
0J
#304742
0R
1S
#304743
0P
#304842
1Q
1R
0S
#308457
1G
18
1$
#308687
0G
08
0$
#310187
0E
0:
0&
#310927
1F
19
1%
#350000
1#
17
#350764
1J
#354572
0R
1S
#354573
0Q
#358287
1G
18
1$
#360574
0F
09
0%
#400000
0#
0"
0!
07
06
05
#400811
0H
0I
0J
#404842
1R
1Q
0S
#404991
0Q
#405003
1O
#405180
0O
#405209
1K
#408687
0G
08
0$
#408853
1D
1;
1'
#408894
0D
0;
0'
#409461
1@
1?
1+
#450000
1#
17
#450764
1J
#454574
0K
#454598
1L
#458677
0@
0?
0+
#458765
1A
1>
1*
#500000
0#
1"
07
16
#500764
1I
#500811
0J
#504740
0L
#504749
1N
#504822
0N
#504835
1M
#508695
1B
1=
1)
#508768
0A
0>
0*
#550000
1#
17
#550764
1J
#554567
0M
#554597
1N
#558288
0B
0=
0)
#558748
1C
1<
1(
#600000
0#
0"
1!
07
06
15
#600764
1H
#600811
0I
0J
#604822
0N
#604842
1Q
#604991
0Q
#605003
1O
#608837
0C
0<
0(
#608853
1D
1;
1'
#650000
1#
17
#650764
1J
#654568
0O
#654592
1P
#658282
0D
0;
0'
#660334
1E
1:
1&
#700000
0#
1"
07
16
#700764
1I
#700811
0J
#704742
0R
1S
#704743
0P
#704842
1Q
1R
0S
#708457
1G
18
1$
#708687
0G
08
0$
#710187
0E
0:
0&
#710927
1F
19
1%
#750000
1#
17
#750764
1J
#754572
0R
1S
#754573
0Q
#758287
1G
18
1$
#760574
0F
09
0%
#800000
0#
0"
0!
07
06
05
#800811
0H
0I
0J
#804842
1R
1Q
0S
#804991
0Q
#805003
1O
#805180
0O
#805209
1K
#808687
0G
08
0$
#808853
1D
1;
1'
#808894
0D
0;
0'
#809461
1@
1?
1+
#850000
1#
17
#850764
1J
#854574
0K
#854598
1L
#858677
0@
0?
0+
#858765
1A
1>
1*
#900000
0#
1"
07
16
#900764
1I
#900811
0J
#904740
0L
#904749
1N
#904822
0N
#904835
1M
#908695
1B
1=
1)
#908768
0A
0>
0*
#950000
1#
17
#950764
1J
#954567
0M
#954597
1N
#958288
0B
0=
0)
#958748
1C
1<
1(
