VHDL-FPGA/EJEMPLO_3_DECODE/simulation/qsim/decode_3_to_7.msim.vcd
$comment
	File created using the following command:
		vcd file decode_3_to_7.msim.vcd -direction
$end
$date
	Fri Aug 05 16:44:30 2022
$end
$version
	ModelSim Version 2020.1
$end
$timescale
	1ps
$end

$scope module decode_3_to_7_vhd_vec_tst $end
$var wire 1 ! ints [2] $end
$var wire 1 " ints [1] $end
$var wire 1 # ints [0] $end
$var wire 1 $ outs [7] $end
$var wire 1 % outs [6] $end
$var wire 1 & outs [5] $end
$var wire 1 ' outs [4] $end
$var wire 1 ( outs [3] $end
$var wire 1 ) outs [2] $end
$var wire 1 * outs [1] $end
$var wire 1 + outs [0] $end

$scope module i1 $end
$var wire 1 , gnd $end
$var wire 1 - vcc $end
$var wire 1 . unknown $end
$var wire 1 / devoe $end
$var wire 1 0 devclrn $end
$var wire 1 1 devpor $end
$var wire 1 2 ww_devoe $end
$var wire 1 3 ww_devclrn $end
$var wire 1 4 ww_devpor $end
$var wire 1 5 ww_ints [2] $end
$var wire 1 6 ww_ints [1] $end
$var wire 1 7 ww_ints [0] $end
$var wire 1 8 ww_outs [7] $end
$var wire 1 9 ww_outs [6] $end
$var wire 1 : ww_outs [5] $end
$var wire 1 ; ww_outs [4] $end
$var wire 1 < ww_outs [3] $end
$var wire 1 = ww_outs [2] $end
$var wire 1 > ww_outs [1] $end
$var wire 1 ? ww_outs [0] $end
$var wire 1 @ \outs[0]~output_o\ $end
$var wire 1 A \outs[1]~output_o\ $end
$var wire 1 B \outs[2]~output_o\ $end
$var wire 1 C \outs[3]~output_o\ $end
$var wire 1 D \outs[4]~output_o\ $end
$var wire 1 E \outs[5]~output_o\ $end
$var wire 1 F \outs[6]~output_o\ $end
$var wire 1 G \outs[7]~output_o\ $end
$var wire 1 H \ints[2]~input_o\ $end
$var wire 1 I \ints[0]~input_o\ $end
$var wire 1 J \ints[1]~input_o\ $end
$var wire 1 K \Equal7~0_combout\ $end
$var wire 1 L \Equal7~1_combout\ $end
$var wire 1 M \Equal7~2_combout\ $end
$var wire 1 N \Equal7~3_combout\ $end
$var wire 1 O \Equal7~4_combout\ $end
$var wire 1 P \outs[5]~0_combout\ $end
$var wire 1 Q \Equal7~5_combout\ $end
$var wire 1 R \outs[7]~1_combout\ $end
$var wire 1 S \ALT_INV_outs[7]~1_combout\ $end
$upscope $end
$upscope $end
$enddefinitions $end
#0
$dumpvars
0,
1-
x.
1/
10
11
12
13
14
1@
0A
0B
0C
0D
0E
0F
0G
0H
0I
0J
1K
0L
0M
0N
0O
0P
0Q
1R
0S
0!
0"
0#
05
06
07
08
09
0:
0;
0<
0=
0>
1?
0$
0%
0&
0'
0(
0)
0*
1+
$end
#50000
1#
17
1I
0K
1L
1A
0@
1>
0?
0+
1*
#100000
0#
1"
07
16
1J
0I
0L
1M
1B
0A
1=
0>
0*
1)
#150000
1#
17
1I
0M
1N
1C
0B
1<
0=
0)
1(
#200000
0#
0"
1!
07
06
15
1H
0J
0I
0N
1O
1D
0C
1;
0<
0(
1'
#250000
1#
17
1I
0O
1P
1E
0D
1:
0;
0'
1&
#300000
0#
1"
07
16
1J
0I
0P
1Q
1F
0E
19
0:
0&
1%
#350000
1#
17
1I
0Q
0R
1S
0F
1G
09
18
0%
1$
#400000
0#
0"
0!
07
06
05
0H
0J
0I
1K
1R
0S
1@
0G
1?
08
1+
0$
#450000
1#
17
1I
0K
1L
1A
0@
1>
0?
0+
1*
#500000
0#
1"
07
16
1J
0I
0L
1M
1B
0A
1=
0>
0*
1)
#550000
1#
17
1I
0M
1N
1C
0B
1<
0=
0)
1(
#600000
0#
0"
1!
07
06
15
1H
0J
0I
0N
1O
1D
0C
1;
0<
0(
1'
#650000
1#
17
1I
0O
1P
1E
0D
1:
0;
0'
1&
#700000
0#
1"
07
16
1J
0I
0P
1Q
1F
0E
19
0:
0&
1%
#750000
1#
17
1I
0Q
0R
1S
0F
1G
09
18
0%
1$
#800000
0#
0"
0!
07
06
05
0H
0J
0I
1K
1R
0S
1@
0G
1?
08
1+
0$
#850000
1#
17
1I
0K
1L
1A
0@
1>
0?
0+
1*
#900000
0#
1"
07
16
1J
0I
0L
1M
1B
0A
1=
0>
0*
1)
#950000
1#
17
1I
0M
1N
1C
0B
1<
0=
0)
1(
