VHDL-FPGA/EJEMPLO_4_FFD/simulation/qsim/flip_flop_D.msim.vcd
$comment
	File created using the following command:
		vcd file flip_flop_D.msim.vcd -direction
$end
$date
	Fri Aug 05 22:14:39 2022
$end
$version
	ModelSim Version 2020.1
$end
$timescale
	1ps
$end

$scope module flip_flop_d_vhd_vec_tst $end
$var wire 1 ! int_clk $end
$var wire 1 " int_D $end
$var wire 1 # out_D $end
$var wire 1 $ out_D_n $end

$scope module i1 $end
$var wire 1 % gnd $end
$var wire 1 & vcc $end
$var wire 1 ' unknown $end
$var wire 1 ( devoe $end
$var wire 1 ) devclrn $end
$var wire 1 * devpor $end
$var wire 1 + ww_devoe $end
$var wire 1 , ww_devclrn $end
$var wire 1 - ww_devpor $end
$var wire 1 . ww_int_D $end
$var wire 1 / ww_int_clk $end
$var wire 1 0 ww_out_D $end
$var wire 1 1 ww_out_D_n $end
$var wire 1 2 \out_D~output_o\ $end
$var wire 1 3 \out_D_n~output_o\ $end
$var wire 1 4 \int_clk~input_o\ $end
$var wire 1 5 \int_D~input_o\ $end
$var wire 1 6 \out_D~reg0_q\ $end
$var wire 1 7 \out_D_n~0_combout\ $end
$var wire 1 8 \out_D_n~reg0_q\ $end
$upscope $end
$upscope $end
$enddefinitions $end
#0
$dumpvars
0!
0"
0#
0$
0%
1&
x'
1(
1)
1*
1+
1,
1-
0.
0/
00
01
02
03
04
05
06
17
08
$end
#20000
1!
1/
14
18
13
11
1$
#40000
0!
0/
04
#60000
1!
1/
14
#70000
1"
1.
15
07
#80000
0!
0/
04
#100000
1!
1/
14
16
08
03
12
01
10
0$
1#
#120000
0!
0/
04
#140000
1!
0"
1/
0.
05
14
17
#160000
0!
0/
04
#180000
1!
1/
14
06
18
13
02
11
00
1$
0#
#200000
0!
0/
04
#210000
1"
1.
15
07
#220000
1!
1/
14
16
08
03
12
01
10
0$
1#
#240000
0!
0/
04
#260000
1!
1/
14
#280000
0!
0"
0/
0.
05
04
17
#300000
1!
1/
14
06
18
13
02
11
00
1$
0#
#320000
0!
0/
04
#340000
1!
1/
14
#350000
1"
1.
15
07
#360000
0!
0/
04
#380000
1!
1/
14
16
08
03
12
01
10
0$
1#
#400000
0!
0/
04
#420000
1!
0"
1/
0.
05
14
17
#440000
0!
0/
04
#460000
1!
1/
14
06
18
13
02
11
00
1$
0#
#480000
0!
0/
04
#490000
1"
1.
15
07
#500000
1!
1/
14
16
08
03
12
01
10
0$
1#
#520000
0!
0/
04
#540000
1!
1/
14
#560000
0!
0"
0/
0.
05
04
17
#580000
1!
1/
14
06
18
13
02
11
00
1$
0#
#600000
0!
0/
04
#620000
1!
1/
14
#630000
1"
1.
15
07
#640000
0!
0/
04
#660000
1!
1/
14
16
08
03
12
01
10
0$
1#
#680000
0!
0/
04
#700000
1!
0"
1/
0.
05
14
17
#720000
0!
0/
04
#740000
1!
1/
14
06
18
13
02
11
00
1$
0#
#760000
0!
0/
04
#770000
1"
1.
15
07
#780000
1!
1/
14
16
08
03
12
01
10
0$
1#
#800000
0!
0/
04
#820000
1!
1/
14
#840000
0!
0"
0/
0.
05
04
17
#860000
1!
1/
14
06
18
13
02
11
00
1$
0#
#880000
0!
0/
04
#900000
1!
1/
14
#910000
1"
1.
15
07
#920000
0!
0/
04
#940000
1!
1/
14
16
08
03
12
01
10
0$
1#
#960000
0!
0/
04
#980000
1!
0"
1/
0.
05
14
17
