clase 2/design_circuit/simulation/qsim/circuit_gates.msim.vcd
$comment
	File created using the following command:
		vcd file circuit_gates.msim.vcd -direction
$end
$date
	Fri Jan 07 15:50:50 2022
$end
$version
	ModelSim Version 2020.1
$end
$timescale
	1ps
$end

$scope module circuit_gates_vhd_vec_tst $end
$var wire 1 ! S1 $end
$var wire 1 " S2 $end
$var wire 1 # W $end
$var wire 1 $ X $end
$var wire 1 % Y $end
$var wire 1 & Z $end

$scope module i1 $end
$var wire 1 ' gnd $end
$var wire 1 ( vcc $end
$var wire 1 ) unknown $end
$var wire 1 * devoe $end
$var wire 1 + devclrn $end
$var wire 1 , devpor $end
$var wire 1 - ww_devoe $end
$var wire 1 . ww_devclrn $end
$var wire 1 / ww_devpor $end
$var wire 1 0 ww_W $end
$var wire 1 1 ww_X $end
$var wire 1 2 ww_Y $end
$var wire 1 3 ww_Z $end
$var wire 1 4 ww_S1 $end
$var wire 1 5 ww_S2 $end
$var wire 1 6 \S1~output_o\ $end
$var wire 1 7 \S2~output_o\ $end
$var wire 1 8 \W~input_o\ $end
$var wire 1 9 \Y~input_o\ $end
$var wire 1 : \Z~input_o\ $end
$var wire 1 ; \X~input_o\ $end
$var wire 1 < \S1~0_combout\ $end
$var wire 1 = \ALT_INV_S1~0_combout\ $end
$upscope $end
$upscope $end
$enddefinitions $end
#0
$dumpvars
1!
1"
0#
0$
0%
0&
0'
1(
x)
1*
1+
1,
1-
1.
1/
00
01
02
03
14
15
16
17
08
09
0:
0;
0<
1=
$end
#10000
1&
13
1:
1<
0=
06
07
04
05
0!
0"
#20000
0&
1%
03
12
19
0:
0<
1=
16
17
14
15
1!
1"
#30000
1&
13
1:
1<
0=
06
07
04
05
0!
0"
#40000
0&
0%
1$
03
02
11
1;
09
0:
0<
1=
16
17
14
15
1!
1"
#50000
1&
13
1:
1<
0=
06
07
04
05
0!
0"
#60000
0&
1%
03
12
19
0:
0<
1=
16
17
14
15
1!
1"
#70000
1&
13
1:
1<
0=
06
07
04
05
0!
0"
#80000
0&
0%
0$
1#
03
02
01
10
18
0;
09
0:
#90000
1&
13
1:
#100000
0&
1%
03
12
19
0:
#110000
1&
13
1:
#120000
0&
0%
1$
03
02
11
1;
09
0:
#130000
1&
13
1:
#140000
0&
1%
03
12
19
0:
0<
1=
16
17
14
15
1!
1"
#150000
1&
13
1:
#160000
0&
0%
0$
0#
03
02
01
00
08
0;
09
0:
#170000
1&
13
1:
1<
0=
06
07
04
05
0!
0"
#180000
0&
1%
03
12
19
0:
0<
1=
16
17
14
15
1!
1"
#190000
1&
13
1:
1<
0=
06
07
04
05
0!
0"
#200000
0&
0%
1$
03
02
11
1;
09
0:
0<
1=
16
17
14
15
1!
1"
#210000
1&
13
1:
1<
0=
06
07
04
05
0!
0"
#220000
0&
1%
03
12
19
0:
0<
1=
16
17
14
15
1!
1"
#230000
1&
13
1:
1<
0=
06
07
04
05
0!
0"
#240000
0&
0%
0$
1#
03
02
01
10
18
0;
09
0:
#250000
1&
13
1:
#260000
0&
1%
03
12
19
0:
#270000
1&
13
1:
#280000
0&
0%
1$
03
02
11
1;
09
0:
#290000
1&
13
1:
#300000
0&
1%
03
12
19
0:
0<
1=
16
17
14
15
1!
1"
#310000
1&
13
1:
#320000
0&
0%
0$
0#
03
02
01
00
08
0;
09
0:
#330000
1&
13
1:
1<
0=
06
07
04
05
0!
0"
#340000
0&
1%
03
12
19
0:
0<
1=
16
17
14
15
1!
1"
#350000
1&
13
1:
1<
0=
06
07
04
05
0!
0"
#360000
0&
0%
1$
03
02
11
1;
09
0:
0<
1=
16
17
14
15
1!
1"
#370000
1&
13
1:
1<
0=
06
07
04
05
0!
0"
#380000
0&
1%
03
12
19
0:
0<
1=
16
17
14
15
1!
1"
#390000
1&
13
1:
1<
0=
06
07
04
05
0!
0"
#400000
0&
0%
0$
1#
03
02
01
10
18
0;
09
0:
#410000
1&
13
1:
#420000
0&
1%
03
12
19
0:
#430000
1&
13
1:
#440000
0&
0%
1$
03
02
11
1;
09
0:
#450000
1&
13
1:
#460000
0&
1%
03
12
19
0:
0<
1=
16
17
14
15
1!
1"
#470000
1&
13
1:
#480000
0&
0%
0$
0#
03
02
01
00
08
0;
09
0:
#490000
1&
13
1:
1<
0=
06
07
04
05
0!
0"
#500000
0&
1%
03
12
19
0:
0<
1=
16
17
14
15
1!
1"
#510000
1&
13
1:
1<
0=
06
07
04
05
0!
0"
#520000
0&
0%
1$
03
02
11
1;
09
0:
0<
1=
16
17
14
15
1!
1"
#530000
1&
13
1:
1<
0=
06
07
04
05
0!
0"
#540000
0&
1%
03
12
19
0:
0<
1=
16
17
14
15
1!
1"
#550000
1&
13
1:
1<
0=
06
07
04
05
0!
0"
#560000
0&
0%
0$
1#
03
02
01
10
18
0;
09
0:
#570000
1&
13
1:
#580000
0&
1%
03
12
19
0:
#590000
1&
13
1:
#600000
0&
0%
1$
03
02
11
1;
09
0:
#610000
1&
13
1:
#620000
0&
1%
03
12
19
0:
0<
1=
16
17
14
15
1!
1"
#630000
1&
13
1:
#640000
0&
0%
0$
0#
03
02
01
00
08
0;
09
0:
#650000
1&
13
1:
1<
0=
06
07
04
05
0!
0"
#660000
0&
1%
03
12
19
0:
0<
1=
16
17
14
15
1!
1"
#670000
1&
13
1:
1<
0=
06
07
04
05
0!
0"
#680000
0&
0%
1$
03
02
11
1;
09
0:
0<
1=
16
17
14
15
1!
1"
#690000
1&
13
1:
1<
0=
06
07
04
05
0!
0"
#700000
0&
1%
03
12
19
0:
0<
1=
16
17
14
15
1!
1"
#710000
1&
13
1:
1<
0=
06
07
04
05
0!
0"
#720000
0&
0%
0$
1#
03
02
01
10
18
0;
09
0:
#730000
1&
13
1:
#740000
0&
1%
03
12
19
0:
#750000
1&
13
1:
#760000
0&
0%
1$
03
02
11
1;
09
0:
#770000
1&
13
1:
#780000
0&
1%
03
12
19
0:
0<
1=
16
17
14
15
1!
1"
#790000
1&
13
1:
#800000
0&
0%
0$
0#
03
02
01
00
08
0;
09
0:
#810000
1&
13
1:
1<
0=
06
07
04
05
0!
0"
#820000
0&
1%
03
12
19
0:
0<
1=
16
17
14
15
1!
1"
#830000
1&
13
1:
1<
0=
06
07
04
05
0!
0"
#840000
0&
0%
1$
03
02
11
1;
09
0:
0<
1=
16
17
14
15
1!
1"
#850000
1&
13
1:
1<
0=
06
07
04
05
0!
0"
#860000
0&
1%
03
12
19
0:
0<
1=
16
17
14
15
1!
1"
#870000
1&
13
1:
1<
0=
06
07
04
05
0!
0"
#880000
0&
0%
0$
1#
03
02
01
10
18
0;
09
0:
#890000
1&
13
1:
#900000
0&
1%
03
12
19
0:
#910000
1&
13
1:
#920000
0&
0%
1$
03
02
11
1;
09
0:
#930000
1&
13
1:
#940000
0&
1%
03
12
19
0:
0<
1=
16
17
14
15
1!
1"
#950000
1&
13
1:
#960000
0&
0%
0$
0#
03
02
01
00
08
0;
09
0:
#970000
1&
13
1:
1<
0=
06
07
04
05
0!
0"
#980000
0&
1%
03
12
19
0:
0<
1=
16
17
14
15
1!
1"
#990000
1&
13
1:
1<
0=
06
07
04
05
0!
0"
